# vtk DataFile Version 4.0
Vibrational modes of plate
ASCII
DATASET POLYDATA
POINTS 315 float
0 0 0 0 0 0 0.5 0 0 
0.5 0.5 0 0 0.5 0 0 0.5 0.5 
0 0 0.5 0.5 0 0.5 0 0.5 1 
0 0 1 0.5 0 1 0 0.5 1.5 
0 0 1.5 0.5 0 1.5 0 0.5 2 
0 0 2 0.5 0 2 0 0.5 2.5 
0 0 2.5 0.5 0 2.5 0 0.5 3 
0 0 3 0.5 0 3 0 0.5 3.5 
0 0 3.5 0.5 0 3.5 0 0.5 4 
0 0 4 0.5 0 4 0 0.5 4.5 
0 0 4.5 0.5 0 4.5 0 0.5 5 
0 0 5 0.5 0 5 0 0.5 5.5 
0 0 5.5 0.5 0 5.5 0 0.5 6 
0 0 6 0.5 0 6 0 0.5 6.5 
0 0 6.5 0.5 0 6.5 0 0.5 7 
0 0 7 0.5 0 7 0 0.5 7.5 
0 0 7.5 0.5 0 7.5 0 0.5 8 
0 0 8 0.5 0 8 0 0.5 8.5 
0 0 8.5 0.5 0 8.5 0 0.5 9 
0 0 9 0.5 0 9 0.5 0.5 9 
0.5 1 0 0 1 0 0 1 0.5 
0.5 1 0.5 0 1 1 0.5 1 1 
0 1 1.5 0.5 1 1.5 0 1 2 
0.5 1 2 0 1 2.5 0.5 1 2.5 
0 1 3 0.5 1 3 0 1 3.5 
0.5 1 3.5 0 1 4 0.5 1 4 
0 1 4.5 0.5 1 4.5 0 1 5 
0.5 1 5 0 1 5.5 0.5 1 5.5 
0 1 6 0.5 1 6 0 1 6.5 
0.5 1 6.5 0 1 7 0.5 1 7 
0 1 7.5 0.5 1 7.5 0 1 8 
0.5 1 8 0 1 8.5 0.5 1 8.5 
0 1 9 0.5 1 9 1 0 0 
1 0.5 0 1 0 0.5 1 0 1 
1 0 1.5 1 0 2 1 0 2.5 
1 0 3 1 0 3.5 1 0 4 
1 0 4.5 1 0 5 1 0 5.5 
1 0 6 1 0 6.5 1 0 7 
1 0 7.5 1 0 8 1 0 8.5 
1 0 9 1 0.5 9 1 1 0 
1 1 0.5 1 1 1 1 1 1.5 
1 1 2 1 1 2.5 1 1 3 
1 1 3.5 1 1 4 1 1 4.5 
1 1 5 1 1 5.5 1 1 6 
1 1 6.5 1 1 7 1 1 7.5 
1 1 8 1 1 8.5 1 1 9 
1.5 0 0 1.5 0.5 0 1.5 0 0.5 
1.5 0 1 1.5 0 1.5 1.5 0 2 
1.5 0 2.5 1.5 0 3 1.5 0 3.5 
1.5 0 4 1.5 0 4.5 1.5 0 5 
1.5 0 5.5 1.5 0 6 1.5 0 6.5 
1.5 0 7 1.5 0 7.5 1.5 0 8 
1.5 0 8.5 1.5 0 9 1.5 0.5 9 
1.5 1 0 1.5 1 0.5 1.5 1 1 
1.5 1 1.5 1.5 1 2 1.5 1 2.5 
1.5 1 3 1.5 1 3.5 1.5 1 4 
1.5 1 4.5 1.5 1 5 1.5 1 5.5 
1.5 1 6 1.5 1 6.5 1.5 1 7 
1.5 1 7.5 1.5 1 8 1.5 1 8.5 
1.5 1 9 2 0 0 2 0.5 0 
2 0 0.5 2 0 1 2 0 1.5 
2 0 2 2 0 2.5 2 0 3 
2 0 3.5 2 0 4 2 0 4.5 
2 0 5 2 0 5.5 2 0 6 
2 0 6.5 2 0 7 2 0 7.5 
2 0 8 2 0 8.5 2 0 9 
2 0.5 9 2 1 0 2 1 0.5 
2 1 1 2 1 1.5 2 1 2 
2 1 2.5 2 1 3 2 1 3.5 
2 1 4 2 1 4.5 2 1 5 
2 1 5.5 2 1 6 2 1 6.5 
2 1 7 2 1 7.5 2 1 8 
2 1 8.5 2 1 9 2.5 0 0 
2.5 0.5 0 2.5 0 0.5 2.5 0 1 
2.5 0 1.5 2.5 0 2 2.5 0 2.5 
2.5 0 3 2.5 0 3.5 2.5 0 4 
2.5 0 4.5 2.5 0 5 2.5 0 5.5 
2.5 0 6 2.5 0 6.5 2.5 0 7 
2.5 0 7.5 2.5 0 8 2.5 0 8.5 
2.5 0 9 2.5 0.5 9 2.5 1 0 
2.5 1 0.5 2.5 1 1 2.5 1 1.5 
2.5 1 2 2.5 1 2.5 2.5 1 3 
2.5 1 3.5 2.5 1 4 2.5 1 4.5 
2.5 1 5 2.5 1 5.5 2.5 1 6 
2.5 1 6.5 2.5 1 7 2.5 1 7.5 
2.5 1 8 2.5 1 8.5 2.5 1 9 
3 0 0 3 0.5 0 3 0.5 0.5 
3 0 0.5 3 0.5 1 3 0 1 
3 0.5 1.5 3 0 1.5 3 0.5 2 
3 0 2 3 0.5 2.5 3 0 2.5 
3 0.5 3 3 0 3 3 0.5 3.5 
3 0 3.5 3 0.5 4 3 0 4 
3 0.5 4.5 3 0 4.5 3 0.5 5 
3 0 5 3 0.5 5.5 3 0 5.5 
3 0.5 6 3 0 6 3 0.5 6.5 
3 0 6.5 3 0.5 7 3 0 7 
3 0.5 7.5 3 0 7.5 3 0.5 8 
3 0 8 3 0.5 8.5 3 0 8.5 
3 0.5 9 3 0 9 3 1 0 
3 1 0.5 3 1 1 3 1 1.5 
3 1 2 3 1 2.5 3 1 3 
3 1 3.5 3 1 4 3 1 4.5 
3 1 5 3 1 5.5 3 1 6 
3 1 6.5 3 1 7 3 1 7.5 
3 1 8 3 1 8.5 3 1 9 

POLYGONS 312 1560
4 1 2 3 4 
4 4 5 6 1 
4 7 6 1 2 
4 5 8 9 6 
4 10 9 6 7 
4 8 11 12 9 
4 13 12 9 10 
4 11 14 15 12 
4 16 15 12 13 
4 14 17 18 15 
4 19 18 15 16 
4 17 20 21 18 
4 22 21 18 19 
4 20 23 24 21 
4 25 24 21 22 
4 23 26 27 24 
4 28 27 24 25 
4 26 29 30 27 
4 31 30 27 28 
4 29 32 33 30 
4 34 33 30 31 
4 32 35 36 33 
4 37 36 33 34 
4 35 38 39 36 
4 40 39 36 37 
4 38 41 42 39 
4 43 42 39 40 
4 41 44 45 42 
4 46 45 42 43 
4 44 47 48 45 
4 49 48 45 46 
4 47 50 51 48 
4 52 51 48 49 
4 50 53 54 51 
4 55 54 51 52 
4 53 56 57 54 
4 57 58 59 56 
4 58 57 54 55 
4 4 3 60 61 
4 60 61 62 63 
4 61 62 5 4 
4 63 62 64 65 
4 62 64 8 5 
4 65 64 66 67 
4 64 66 11 8 
4 67 66 68 69 
4 66 68 14 11 
4 69 68 70 71 
4 68 70 17 14 
4 71 70 72 73 
4 70 72 20 17 
4 73 72 74 75 
4 72 74 23 20 
4 75 74 76 77 
4 74 76 26 23 
4 77 76 78 79 
4 76 78 29 26 
4 79 78 80 81 
4 78 80 32 29 
4 81 80 82 83 
4 80 82 35 32 
4 83 82 84 85 
4 82 84 38 35 
4 85 84 86 87 
4 84 86 41 38 
4 87 86 88 89 
4 86 88 44 41 
4 89 88 90 91 
4 88 90 47 44 
4 91 90 92 93 
4 90 92 50 47 
4 93 92 94 95 
4 92 94 53 50 
4 95 94 96 97 
4 94 96 56 53 
4 56 59 97 96 
4 2 98 99 3 
4 100 7 2 98 
4 101 10 7 100 
4 102 13 10 101 
4 103 16 13 102 
4 104 19 16 103 
4 105 22 19 104 
4 106 25 22 105 
4 107 28 25 106 
4 108 31 28 107 
4 109 34 31 108 
4 110 37 34 109 
4 111 40 37 110 
4 112 43 40 111 
4 113 46 43 112 
4 114 49 46 113 
4 115 52 49 114 
4 116 55 52 115 
4 58 117 118 59 
4 117 58 55 116 
4 3 99 119 60 
4 119 60 63 120 
4 120 63 65 121 
4 121 65 67 122 
4 122 67 69 123 
4 123 69 71 124 
4 124 71 73 125 
4 125 73 75 126 
4 126 75 77 127 
4 127 77 79 128 
4 128 79 81 129 
4 129 81 83 130 
4 130 83 85 131 
4 131 85 87 132 
4 132 87 89 133 
4 133 89 91 134 
4 134 91 93 135 
4 135 93 95 136 
4 136 95 97 137 
4 59 118 137 97 
4 98 138 139 99 
4 140 100 98 138 
4 141 101 100 140 
4 142 102 101 141 
4 143 103 102 142 
4 144 104 103 143 
4 145 105 104 144 
4 146 106 105 145 
4 147 107 106 146 
4 148 108 107 147 
4 149 109 108 148 
4 150 110 109 149 
4 151 111 110 150 
4 152 112 111 151 
4 153 113 112 152 
4 154 114 113 153 
4 155 115 114 154 
4 156 116 115 155 
4 117 157 158 118 
4 157 117 116 156 
4 99 139 159 119 
4 159 119 120 160 
4 160 120 121 161 
4 161 121 122 162 
4 162 122 123 163 
4 163 123 124 164 
4 164 124 125 165 
4 165 125 126 166 
4 166 126 127 167 
4 167 127 128 168 
4 168 128 129 169 
4 169 129 130 170 
4 170 130 131 171 
4 171 131 132 172 
4 172 132 133 173 
4 173 133 134 174 
4 174 134 135 175 
4 175 135 136 176 
4 176 136 137 177 
4 118 158 177 137 
4 138 178 179 139 
4 180 140 138 178 
4 181 141 140 180 
4 182 142 141 181 
4 183 143 142 182 
4 184 144 143 183 
4 185 145 144 184 
4 186 146 145 185 
4 187 147 146 186 
4 188 148 147 187 
4 189 149 148 188 
4 190 150 149 189 
4 191 151 150 190 
4 192 152 151 191 
4 193 153 152 192 
4 194 154 153 193 
4 195 155 154 194 
4 196 156 155 195 
4 157 197 198 158 
4 197 157 156 196 
4 139 179 199 159 
4 199 159 160 200 
4 200 160 161 201 
4 201 161 162 202 
4 202 162 163 203 
4 203 163 164 204 
4 204 164 165 205 
4 205 165 166 206 
4 206 166 167 207 
4 207 167 168 208 
4 208 168 169 209 
4 209 169 170 210 
4 210 170 171 211 
4 211 171 172 212 
4 212 172 173 213 
4 213 173 174 214 
4 214 174 175 215 
4 215 175 176 216 
4 216 176 177 217 
4 158 198 217 177 
4 178 218 219 179 
4 220 180 178 218 
4 221 181 180 220 
4 222 182 181 221 
4 223 183 182 222 
4 224 184 183 223 
4 225 185 184 224 
4 226 186 185 225 
4 227 187 186 226 
4 228 188 187 227 
4 229 189 188 228 
4 230 190 189 229 
4 231 191 190 230 
4 232 192 191 231 
4 233 193 192 232 
4 234 194 193 233 
4 235 195 194 234 
4 236 196 195 235 
4 197 237 238 198 
4 237 197 196 236 
4 179 219 239 199 
4 239 199 200 240 
4 240 200 201 241 
4 241 201 202 242 
4 242 202 203 243 
4 243 203 204 244 
4 244 204 205 245 
4 245 205 206 246 
4 246 206 207 247 
4 247 207 208 248 
4 248 208 209 249 
4 249 209 210 250 
4 250 210 211 251 
4 251 211 212 252 
4 252 212 213 253 
4 253 213 214 254 
4 254 214 215 255 
4 255 215 216 256 
4 256 216 217 257 
4 198 238 257 217 
4 218 258 259 219 
4 258 259 260 261 
4 261 220 218 258 
4 261 260 262 263 
4 263 221 220 261 
4 263 262 264 265 
4 265 222 221 263 
4 265 264 266 267 
4 267 223 222 265 
4 267 266 268 269 
4 269 224 223 267 
4 269 268 270 271 
4 271 225 224 269 
4 271 270 272 273 
4 273 226 225 271 
4 273 272 274 275 
4 275 227 226 273 
4 275 274 276 277 
4 277 228 227 275 
4 277 276 278 279 
4 279 229 228 277 
4 279 278 280 281 
4 281 230 229 279 
4 281 280 282 283 
4 283 231 230 281 
4 283 282 284 285 
4 285 232 231 283 
4 285 284 286 287 
4 287 233 232 285 
4 287 286 288 289 
4 289 234 233 287 
4 289 288 290 291 
4 291 235 234 289 
4 291 290 292 293 
4 293 236 235 291 
4 293 292 294 295 
4 237 295 294 238 
4 295 237 236 293 
4 219 259 296 239 
4 259 296 297 260 
4 296 239 240 297 
4 260 297 298 262 
4 297 240 241 298 
4 262 298 299 264 
4 298 241 242 299 
4 264 299 300 266 
4 299 242 243 300 
4 266 300 301 268 
4 300 243 244 301 
4 268 301 302 270 
4 301 244 245 302 
4 270 302 303 272 
4 302 245 246 303 
4 272 303 304 274 
4 303 246 247 304 
4 274 304 305 276 
4 304 247 248 305 
4 276 305 306 278 
4 305 248 249 306 
4 278 306 307 280 
4 306 249 250 307 
4 280 307 308 282 
4 307 250 251 308 
4 282 308 309 284 
4 308 251 252 309 
4 284 309 310 286 
4 309 252 253 310 
4 286 310 311 288 
4 310 253 254 311 
4 288 311 312 290 
4 311 254 255 312 
4 290 312 313 292 
4 312 255 256 313 
4 292 313 314 294 
4 313 256 257 314 
4 238 294 314 257 

POINT_DATA 315
FIELD FieldData 5
mode1 3 315 float
0 0 0 0 0 0 0 0 0 
0 0 0 0 0 0 -2.9915e-08 0.0012708 -3.9732e-08 
0.0050088 0.0033768 0.009288 0.0023283 0.0065414 0.0088901 -8.6463e-08 0.014841 -1.1921e-07 
0.0060472 0.0161 0.018701 0.0035033 0.02062 0.018723 -2.2263e-07 0.038084 -1.4563e-07 
0.0063802 0.039465 0.02751 0.0038902 0.044468 0.027594 -4.2624e-07 0.070467 1.08e-06 
0.0062552 0.071655 0.035657 0.0039619 0.076697 0.035727 -1.2299e-06 0.1108 -1.3861e-07 
0.0058852 0.11187 0.042969 0.0038035 0.11668 0.043031 -3.7568e-07 0.15817 2.4635e-07 
0.0053748 0.15911 0.049464 0.0035199 0.16354 0.049521 -1.1928e-06 0.21168 -7.1054e-07 
0.0047891 0.2125 0.055151 0.00316 0.21647 0.055204 -8.3578e-07 0.2705 -2.5326e-06 
0.0041734 0.2712 0.060058 0.0027729 0.27468 0.060108 -1.0268e-06 0.33382 2.5082e-06 
0.0035568 0.33442 0.064213 0.0023714 0.33738 0.06426 -2.4651e-06 0.4009 -2.1594e-07 
0.0029605 0.40138 0.067655 0.0019819 0.40386 0.067698 -6.9743e-07 0.471 7.5032e-08 
0.0023996 0.47138 0.070424 0.0016158 0.4734 0.070465 -3.2607e-06 0.54347 -2.0716e-06 
0.0018872 0.54377 0.072574 0.0012784 0.54536 0.072612 -2.3776e-06 0.61771 -1.1239e-05 
0.001425 0.61792 0.074171 0.00097488 0.61914 0.074205 -4.1314e-07 0.69317 -6.5608e-07 
0.0010153 0.69339 0.075278 0.00071465 0.69421 0.075306 -3.107e-06 0.76939 6.025e-06 
0.00072151 0.7695 0.075982 0.00050791 0.77013 0.076003 -2.4814e-06 0.84602 1.5543e-06 
0.00048834 0.84606 0.076369 0.00035327 0.84651 0.076378 -2.6221e-06 0.92278 5.8718e-07 
0.00029547 0.92287 0.076539 0.00026884 0.92309 0.07655 -3.4018e-06 0.99941 -2.3858e-07 
0.00029046 0.99939 0.076582 0.0002412 0.99972 0.076604 -1.153e-06 0.99979 -1.5681e-07 
0 0 0 0 0 0 -0.0050089 0.0033768 -0.0092881 
-0.0023284 0.0065414 -0.0088902 -0.0060473 0.0161 -0.018701 -0.0035034 0.02062 -0.018723 
-0.006381 0.039465 -0.02751 -0.0038907 0.044468 -0.027594 -0.0062555 0.071654 -0.035658 
-0.0039622 0.076697 -0.035728 -0.0058816 0.11188 -0.042969 -0.003806 0.11668 -0.043031 
-0.0053741 0.15911 -0.049464 -0.0035197 0.16354 -0.049522 -0.0047829 0.21252 -0.055152 
-0.0031603 0.21647 -0.055206 -0.0041751 0.2712 -0.060059 -0.0027751 0.27468 -0.060109 
-0.0035582 0.33441 -0.064215 -0.0023737 0.33738 -0.064262 -0.0029506 0.40142 -0.067655 
-0.001984 0.40385 -0.0677 -0.002398 0.47138 -0.070426 -0.0016178 0.4734 -0.070467 
-0.0018725 0.54381 -0.07258 -0.0012816 0.54535 -0.072615 -0.0014317 0.61792 -0.074173 
-0.00098446 0.61914 -0.074203 -0.0010471 0.69332 -0.07528 -0.00072961 0.69422 -0.075306 
-0.00073191 0.7695 -0.075982 -0.00052037 0.77013 -0.076004 -0.00049337 0.84606 -0.076366 
-0.00036192 0.84651 -0.076375 -0.00030138 0.92287 -0.076537 -0.00027765 0.92309 -0.076547 
-0.00029832 0.99939 -0.076579 -0.00025273 0.99972 -0.0766 0 0 0 
0 0 0 0.00092728 0.0076787 0.009612 0.0014643 0.022715 0.019147 
0.0017861 0.047116 0.027788 0.0018804 0.079521 0.035737 0.0018449 0.11946 0.04292 
0.0017238 0.16613 0.04934 0.0015587 0.21882 0.054994 0.001375 0.27675 0.059881 
0.0011752 0.33916 0.064029 0.00099051 0.40535 0.06748 0.0008095 0.47463 0.070262 
0.00064155 0.54634 0.072428 0.00049175 0.6199 0.074041 0.00036353 0.69478 0.075168 
0.00025794 0.77053 0.075893 0.00016581 0.84679 0.076328 0.00013324 0.92333 0.076531 
0.00011123 0.99993 0.076581 -6.2884e-06 1 4.4333e-06 0 0 0 
-0.00092732 0.0076787 -0.0096121 -0.0014645 0.022715 -0.019147 -0.0017865 0.047116 -0.027788 
-0.0018811 0.079521 -0.035737 -0.0018457 0.11946 -0.042921 -0.0017245 0.16613 -0.049341 
-0.0015599 0.21882 -0.054995 -0.0013771 0.27675 -0.059883 -0.0011786 0.33916 -0.064031 
-0.00099484 0.40535 -0.067483 -0.00081475 0.47463 -0.070264 -0.00064929 0.54634 -0.072429 
-0.00050199 0.6199 -0.07404 -0.00037519 0.69479 -0.075166 -0.00026977 0.77053 -0.075891 
-0.00017638 0.84679 -0.076324 -0.00014153 0.92333 -0.076524 -0.00012286 0.99993 -0.076575 
0 0 0 0 0 0 -2.383e-07 0.0079586 0.0097944 
-8.369e-07 0.023296 0.019364 -3.0244e-07 0.047929 0.027874 -3.6145e-06 0.080416 0.035749 
-4.7739e-06 0.12035 0.042881 -3.4284e-06 0.16698 0.049273 -6.4071e-06 0.21959 0.054913 
-1.4052e-05 0.27742 0.05979 -1.3238e-05 0.33974 0.063944 -1.8752e-05 0.40584 0.0674 
-2.529e-05 0.47503 0.070179 -3.221e-05 0.54666 0.072355 -3.3946e-05 0.62014 0.073979 
-3.6393e-05 0.69496 0.075119 -3.6822e-05 0.77065 0.075841 -3.3868e-05 0.84686 0.076279 
-2.1871e-05 0.92338 0.076511 -1.9149e-05 0.99999 0.076601 -7.4144e-06 0.99996 5.5131e-09 
0 0 0 2.0503e-07 0.0079586 -0.0097944 7.1508e-07 0.023296 -0.019364 
6.6501e-09 0.047929 -0.027874 3.1496e-06 0.080416 -0.035749 4.2074e-06 0.12035 -0.042882 
2.6874e-06 0.16698 -0.049274 5.1321e-06 0.21959 -0.054914 1.1567e-05 0.27742 -0.059792 
8.9646e-06 0.33974 -0.063946 1.2286e-05 0.40584 -0.067402 1.6087e-05 0.47503 -0.070181 
1.9892e-05 0.54666 -0.072356 1.8716e-05 0.62014 -0.073979 1.9438e-05 0.69496 -0.075116 
1.9991e-05 0.77065 -0.075837 1.8283e-05 0.84686 -0.076273 7.9372e-06 0.92339 -0.076501 
5.1955e-06 0.99998 -0.076569 0 0 0 0 0 0 
-0.0009275 0.0076777 0.0096115 -0.0014648 0.022714 0.019147 -0.0017879 0.047114 0.027786 
-0.0018828 0.079512 0.035732 -0.0018494 0.11945 0.042922 -0.0017288 0.16613 0.04934 
-0.0015697 0.2188 0.054985 -0.0013865 0.27672 0.059876 -0.0012004 0.33913 0.064027 
-0.0010163 0.40532 0.067471 -0.00085711 0.47457 0.070251 -0.00070159 0.54626 0.072423 
-0.00055785 0.61983 0.07404 -0.00041583 0.69473 0.075166 -0.00033202 0.77045 0.075894 
-0.00023629 0.84671 0.076345 -0.00018061 0.92328 0.076544 -0.00016861 0.9999 0.076577 
-7.1261e-06 1 3.894e-06 0 0 0 0.00092749 0.0076777 -0.0096115 
0.0014647 0.022714 -0.019147 0.0017877 0.047114 -0.027786 0.0018824 0.079512 -0.035733 
0.0018488 0.11945 -0.042922 0.0017281 0.16613 -0.04934 0.0015684 0.2188 -0.054986 
0.0013836 0.27672 -0.059878 0.0011952 0.33913 -0.064028 0.0010074 0.40532 -0.067473 
0.00084424 0.47457 -0.070252 0.00068421 0.54626 -0.072423 0.00053705 0.61983 -0.074039 
0.0003936 0.69473 -0.075163 0.00031031 0.77045 -0.07589 0.00021551 0.84671 -0.07634 
0.00016105 0.92328 -0.076536 0.00015318 0.9999 -0.076567 0 0 0 
0 0 0 -0.0023281 0.0065411 0.00889 -0.0035022 0.020619 0.018722 
-0.00389 0.044466 0.027593 -0.0039587 0.076692 0.035725 -0.0038058 0.11667 0.043028 
-0.0035235 0.16353 0.049517 -0.0031604 0.21646 0.055202 -0.0027651 0.27465 0.060097 
-0.0023833 0.33735 0.064249 -0.0020059 0.4038 0.067683 -0.001638 0.47332 0.070444 
-0.0012834 0.54525 0.072602 -0.0010161 0.61904 0.074211 -0.00077155 0.69411 0.075302 
-0.00054696 0.77 0.075992 -0.00035576 0.8464 0.076403 -0.00030658 0.92302 0.076566 
-0.00025924 0.99966 0.076617 -9.194e-06 0.99961 1.3351e-06 0 0 0 
0.0023281 0.006541 -0.00889 0.0035022 0.020619 -0.018722 0.0038899 0.044466 -0.027593 
0.0039584 0.076692 -0.035725 0.003804 0.11667 -0.043028 0.0035229 0.16353 -0.049516 
0.0031587 0.21646 -0.055202 0.0027628 0.27465 -0.060097 0.0023702 0.33735 -0.064248 
0.0019977 0.4038 -0.067682 0.0016133 0.47332 -0.070441 0.0012665 0.54525 -0.0726 
0.00097408 0.61904 -0.074209 0.00075012 0.69411 -0.075299 0.00050874 0.77 -0.07599 
0.00033655 0.8464 -0.0764 0.00026001 0.92302 -0.076563 0.00024835 0.99966 -0.076613 
0 0 0 0 0 0 -1.9109e-08 0.0012709 3.9133e-08 
-0.0050082 0.0033773 0.0092879 -4.3621e-08 0.014842 9.2109e-08 -0.0060463 0.0161 0.0187 
-7.5637e-08 0.038085 1.6985e-07 -0.0063769 0.039466 0.02751 -2.2744e-07 0.070476 2.785e-07 
-0.0062533 0.071656 0.035655 -4.6377e-07 0.11079 3.7699e-07 -0.0058855 0.11186 0.042964 
-4.7942e-07 0.15815 5.1165e-07 -0.0053794 0.15909 0.04946 -7.553e-07 0.21167 1.1902e-06 
-0.0047797 0.2125 0.055154 -1.8307e-06 0.27053 1.719e-06 -0.0041694 0.2712 0.06005 
-3.366e-06 0.33379 2.4728e-06 -0.0035544 0.33438 0.064194 -5.5795e-06 0.40081 3.1311e-06 
-0.0029909 0.40131 0.067638 -8.4088e-06 0.4709 3.402e-06 -0.0023989 0.47131 0.070429 
-1.1146e-05 0.54353 3.0806e-06 -0.0018726 0.54369 0.072568 -1.3287e-05 0.61758 2.1998e-06 
-0.0014402 0.61782 0.07415 -1.3645e-05 0.69301 1.5087e-06 -0.001105 0.69318 0.075276 
-1.3565e-05 0.76926 7.7167e-07 -0.00072646 0.76938 0.076008 -1.2253e-05 0.84612 -4.5608e-07 
-0.000465 0.84598 0.076381 -1.0866e-05 0.92263 -2.7548e-07 -0.00033369 0.92269 0.076555 
-8.7798e-06 0.99951 2.4752e-07 -0.00028844 0.99935 0.076611 0 0 0 
0.0050082 0.0033772 -0.0092878 0.0060462 0.0161 -0.0187 0.0063768 0.039466 -0.02751 
0.0062528 0.071656 -0.035654 0.0058846 0.11186 -0.042963 0.0053784 0.15909 -0.049459 
0.0047783 0.2125 -0.055152 0.0041657 0.2712 -0.060046 0.0035475 0.33438 -0.06419 
0.0029793 0.40131 -0.067632 0.0023823 0.47131 -0.070423 0.0018501 0.54369 -0.072562 
0.0014133 0.61782 -0.074146 0.0010772 0.69318 -0.075274 0.00069961 0.76938 -0.076007 
0.00043909 0.84599 -0.07638 0.00031025 0.9227 -0.076557 0.00027062 0.99935 -0.07662 

mode2 3 315 float
0 0 0 0 0 0 0 0 0 
0 0 0 0 0 0 0.019737 2.1143e-06 0.027763 
0.018266 0.010002 0.029523 0.010103 0.006697 0.015789 0.038749 4.7735e-06 0.055606 
0.037306 0.0079045 0.054929 0.031282 0.0054413 0.033312 0.066583 -4.8037e-06 0.07951 
0.065475 0.0070875 0.07921 0.059344 0.0047607 0.049807 0.10183 -1.2589e-05 0.10165 
0.10077 0.0064907 0.10138 0.095317 0.004356 0.064655 0.14403 -3.4632e-05 0.12164 
0.14313 0.0058136 0.12111 0.1384 0.0038592 0.077916 0.19233 3.4337e-05 0.13909 
0.19149 0.0050865 0.13878 0.18716 0.003424 0.089803 0.24607 8.4974e-05 0.15445 
0.24525 0.0046293 0.1542 0.24139 0.0029798 0.10008 0.30429 0.00011121 0.16766 
0.30356 0.0040827 0.16749 0.30019 0.0025346 0.10913 0.36644 0.00015375 0.17911 
0.36574 0.003419 0.17884 0.36305 0.0022361 0.11676 0.43196 0.00020571 0.18869 
0.43133 0.0030376 0.18818 0.42885 0.0017792 0.12303 0.50004 0.00023252 0.19595 
0.49945 0.0024935 0.19572 0.49735 0.0013867 0.12833 0.5698 0.00022847 0.20161 
0.56929 0.0020571 0.20145 0.56757 0.0010583 0.13234 0.64085 0.00012131 0.20593 
0.64044 0.0016274 0.20572 0.63901 0.00073173 0.13551 0.71262 2.1117e-05 0.20879 
0.71243 0.00083012 0.20867 0.71115 0.00052111 0.13772 0.78469 6.4428e-05 0.2106 
0.78441 0.00096415 0.21053 0.78348 0.00026672 0.13933 0.85665 0.00013259 0.21159 
0.85637 0.00080377 0.21145 0.85563 0.00014511 0.14024 0.92814 0.00015324 0.21185 
0.92805 0.00018713 0.21182 0.9273 8.562e-05 0.14077 0.99933 0.00017293 0.21198 
0.99904 0.00074153 0.212 0.99833 -3.6609e-05 0.14101 1 0.00013859 0.14097 
0 0 0 0 0 0 0.018266 -0.0099971 0.02952 
0.010102 -0.0066913 0.015785 0.037302 -0.0078968 0.054924 0.031289 -0.0054285 0.033307 
0.065462 -0.0070859 0.079199 0.059329 -0.0047404 0.049804 0.10068 -0.0065302 0.10132 
0.095304 -0.004333 0.064653 0.14301 -0.0057481 0.12109 0.13809 -0.0038389 0.077892 
0.19145 -0.0050524 0.13878 0.18718 -0.0033558 0.089758 0.24534 -0.0043726 0.15417 
0.24143 -0.0028856 0.10005 0.30364 -0.0038783 0.16745 0.30026 -0.0023991 0.1091 
0.36587 -0.003156 0.1788 0.36315 -0.002064 0.11672 0.43156 -0.002483 0.18814 
0.42898 -0.0015917 0.12301 0.49965 -0.0021339 0.19571 0.4975 -0.0011467 0.12832 
0.56953 -0.0014137 0.20147 0.5677 -0.00084902 0.13235 0.64048 -0.0013843 0.20575 
0.63905 -0.00051362 0.13555 0.71226 -0.0010582 0.20868 0.71112 -0.00027548 0.13772 
0.78434 -0.00078309 0.2105 0.78345 -4.0717e-05 0.13929 0.85638 -0.00056019 0.21141 
0.85563 0.00011544 0.14019 0.92809 0.00013413 0.2118 0.92734 0.00018287 0.14074 
0.9991 -0.00039697 0.21199 0.9984 0.00031634 0.14099 0 0 0 
0 0 0 0.0073923 0.0033964 0.007614 0.027075 0.002751 0.015554 
0.055726 0.0024165 0.02396 0.092026 0.0021827 0.031415 0.13528 0.0019172 0.038123 
0.18457 0.0017193 0.044078 0.23924 0.0014316 0.049256 0.29841 0.0011934 0.053765 
0.36138 0.0010787 0.057573 0.42763 0.00074305 0.060754 0.49633 0.00050821 0.063428 
0.56676 0.00031426 0.065578 0.63839 0.00015 0.06726 0.71069 1.1912e-05 0.068515 
0.78322 -7.9119e-05 0.069406 0.85555 -0.00014503 0.069972 0.92736 -0.00019516 0.070292 
0.99832 -0.000267 0.07044 0.99831 0.00010841 0.070618 0 0 0 
0.0073936 -0.0033906 0.00761 0.027076 -0.0027345 0.015547 0.055728 -0.002385 0.023958 
0.091999 -0.0021435 0.031434 0.13523 -0.0018667 0.038108 0.18456 -0.0016437 0.044029 
0.23926 -0.001341 0.049235 0.29846 -0.0010981 0.053746 0.36144 -0.00095482 0.05755 
0.42773 -0.00060605 0.060748 0.49644 -0.00037377 0.063427 0.56687 -0.00015856 0.065581 
0.63849 2.8044e-05 0.067257 0.71078 0.00018993 0.068498 0.78329 0.00032545 0.069372 
0.8556 0.00042555 0.069946 0.9274 0.00047337 0.070256 0.99838 0.00058365 0.07036 
0 0 0 0 0 0 0.0066938 5.9759e-06 1.0833e-05 
0.025864 1.0484e-05 1.961e-05 0.054438 1.7866e-05 1.5816e-05 0.090929 2.7985e-05 1.0563e-05 
0.13424 3.5972e-05 2.4058e-06 0.18366 4.5684e-05 -2.1796e-06 0.23842 5.0471e-05 -1.5333e-05 
0.29771 6.4601e-05 -4.3188e-05 0.3608 4.8784e-05 -0.00011519 0.42698 4.0479e-05 -0.00016462 
0.49563 1.0211e-05 -0.00015135 0.56605 1.0768e-06 -7.8505e-05 0.6377 1.7867e-06 -1.0003e-05 
0.71002 2.275e-06 7.4231e-05 0.78262 4.5585e-05 0.00017049 0.85505 8.6313e-05 0.0002064 
0.92695 6.3164e-05 0.00020906 0.99788 0.00019657 0.00030171 0.99788 0.00025559 2.7901e-06 
0 0 0 0.006697 -1.4279e-07 7.8394e-06 0.025869 3.5893e-06 1.4665e-05 
0.05445 8.9542e-06 1.5163e-05 0.090938 2.0988e-05 5.098e-06 0.13426 3.0493e-05 -2.2537e-06 
0.18371 4.354e-05 -1.4889e-05 0.23847 5.2153e-05 -8.4486e-06 0.29779 5.5949e-05 -5.0592e-05 
0.3609 9.7843e-05 -0.0001013 0.42712 9.909e-05 -0.00013406 0.49578 0.00012028 -0.00012837 
0.56624 0.00015248 -7.1793e-05 0.63789 0.0001683 -8.488e-06 0.71024 0.00017924 5.8397e-05 
0.78282 0.00019998 0.00011608 0.85527 0.00020865 0.00013913 0.92715 0.00021796 8.469e-05 
0.99813 0.00022682 -4.052e-06 0 0 0 0 0 0 
0.007382 -0.0033861 -0.0075992 0.027073 -0.0027316 -0.015518 0.05576 -0.0023709 -0.02392 
0.092035 -0.0021177 -0.031419 0.13522 -0.0018694 -0.038119 0.18451 -0.0016595 -0.044048 
0.23916 -0.0013711 -0.049254 0.29837 -0.0011867 -0.053802 0.36134 -0.00089937 -0.057717 
0.42731 -0.00082568 -0.061 0.4957 -0.0007115 -0.063625 0.56598 -0.00056074 -0.06569 
0.63749 -0.00042377 -0.067249 0.70977 -0.00024456 -0.06837 0.7823 -0.00015602 -0.069126 
0.85483 -4.113e-05 -0.069632 0.92689 0.00021688 -0.069947 0.99787 0.00021675 -0.070066 
0.99817 4.6369e-05 -0.070393 0 0 0 0.0073873 0.0033892 -0.0075997 
0.027085 0.002736 -0.015515 0.055781 0.0023807 -0.023917 0.092095 0.0021456 -0.031401 
0.13532 0.0019062 -0.038101 0.18465 0.001707 -0.044031 0.23934 0.0014447 -0.049257 
0.2986 0.0012779 -0.053762 0.36166 0.0010119 -0.057679 0.42769 0.00093983 -0.060927 
0.49616 0.0007879 -0.06359 0.56653 0.00060027 -0.065638 0.63809 0.0005265 -0.067237 
0.71039 0.00040345 -0.068374 0.78294 0.0003023 -0.069158 0.85551 0.00012409 -0.069653 
0.9275 -0.0001679 -0.070083 0.9985 2.5438e-05 -0.070547 0 0 0 
0 0 0 0.010093 -0.0066918 -0.015781 0.031227 -0.0054337 -0.033286 
0.059371 -0.0047415 -0.049769 0.095332 -0.0043421 -0.064633 0.13808 -0.0038737 -0.077875 
0.18708 -0.00345 -0.089745 0.24129 -0.0029718 -0.10002 0.30032 -0.0025045 -0.10907 
0.36275 -0.0021745 -0.11672 0.42856 -0.0019229 -0.12311 0.49665 -0.0015538 -0.12819 
0.5667 -0.0011951 -0.13237 0.63791 -0.0010492 -0.13546 0.7099 -0.00079292 -0.13759 
0.78237 -0.00051161 -0.13912 0.85501 -0.00033327 -0.14 0.92657 -0.0001443 -0.14047 
0.99819 5.8424e-05 -0.1407 0.99812 -0.00015392 -0.14085 0 0 0 
0.010099 0.0066891 -0.015777 0.031239 0.0054245 -0.033279 0.0594 0.0047286 -0.049754 
0.095384 0.0043136 -0.064593 0.13842 0.0038028 -0.07784 0.18723 0.003342 -0.089721 
0.24195 0.0028944 -0.1 0.3005 0.0024288 -0.109 0.36392 0.0019955 -0.11662 
0.429 0.0016373 -0.12303 0.49849 0.0012581 -0.12814 0.56705 0.0008895 -0.13229 
0.64036 0.00063698 -0.1354 0.71063 0.00031237 -0.13758 0.78499 9.1035e-05 -0.13918 
0.85538 -5.421e-06 -0.1401 0.92891 -0.00018741 -0.14057 0.99841 -0.00029661 -0.1409 
0 0 0 0 0 0 0.019719 -4.1065e-06 -0.027754 
0.018243 -0.010005 -0.02951 0.038747 -8.3681e-06 -0.055613 0.03729 -0.0079173 -0.054931 
0.066661 -2.7438e-05 -0.079514 0.065525 -0.0071209 -0.079195 0.10193 -1.8591e-05 -0.10155 
0.10077 -0.0065527 -0.10127 0.14406 -0.00015365 -0.12131 0.14297 -0.0059592 -0.12109 
0.19236 -0.00018649 -0.13902 0.19132 -0.0052882 -0.13871 0.24605 -0.00026321 -0.15433 
0.24509 -0.0047085 -0.15408 0.30434 -3.4134e-05 -0.16767 0.30346 -0.0039854 -0.16739 
0.36652 -0.00049078 -0.17878 0.36559 -0.0037071 -0.1786 0.43162 -0.00055821 -0.18796 
0.43066 -0.003147 -0.18781 0.49911 -0.00075694 -0.19546 0.49828 -0.0025526 -0.19524 
0.56863 -3.9118e-05 -0.2014 0.56791 -0.0020751 -0.20122 0.63961 -0.0010091 -0.20572 
0.63873 -0.0018185 -0.20565 0.71128 -0.00094767 -0.20866 0.71035 -0.0016689 -0.20857 
0.78335 -0.0010721 -0.21063 0.7826 -0.0011599 -0.21041 0.8558 -2.7844e-05 -0.21175 
0.85512 -0.00077193 -0.2115 0.92774 -0.00087533 -0.21175 0.92702 -0.00097992 -0.21174 
0.99889 -1.6939e-05 -0.21198 0.99824 -0.00039273 -0.2115 0 0 0 
0.018248 0.0099971 -0.029507 0.037303 0.0078947 -0.054923 0.065547 0.0070833 -0.07919 
0.10088 0.0064374 -0.10126 0.14318 0.0057081 -0.12105 0.19166 0.0049081 -0.13873 
0.24546 0.0043304 -0.15412 0.30396 0.0035352 -0.16738 0.36629 0.0029348 -0.17845 
0.43169 0.0020127 -0.18781 0.49931 0.0014486 -0.19535 0.569 0.00098015 -0.20121 
0.64014 0.00028427 -0.20544 0.71209 -0.0002333 -0.20859 0.78409 -0.00044749 -0.21064 
0.85636 -0.00043997 -0.21158 0.92818 -6.9315e-05 -0.21173 0.99924 -0.00069421 -0.21123 

mode3 3 315 float
0 0 0 0 0 0 0 0 0 
0 0 0 0 0 0 6.2441e-06 -0.040394 7.2847e-06 
0.011157 -0.045822 -0.02617 0.018064 -0.031362 -0.025606 2.1748e-05 -0.1089 1.8772e-05 
0.03597 -0.11001 -0.042734 0.038872 -0.073431 -0.041393 4.2901e-05 -0.18691 3.3376e-05 
0.06213 -0.18799 -0.050216 0.063443 -0.12551 -0.048033 0.00012566 -0.26968 -7.4859e-05 
0.0897 -0.2699 -0.05291 0.090081 -0.18021 -0.050519 0.00025363 -0.35313 8.3145e-05 
0.11761 -0.35285 -0.053359 0.11806 -0.23561 -0.050769 0.00011903 -0.4345 -3.197e-05 
0.14436 -0.4343 -0.052188 0.14408 -0.29011 -0.049576 0.00016299 -0.51303 1.1694e-05 
0.17019 -0.51258 -0.049812 0.16997 -0.34257 -0.047373 6.6089e-05 -0.58712 0.00018636 
0.19484 -0.58684 -0.046959 0.19446 -0.39217 -0.044616 6.495e-05 -0.65662 -0.00015301 
0.21794 -0.6563 -0.043449 0.21757 -0.43846 -0.041366 0.0002306 -0.72082 0.00014391 
0.2393 -0.72017 -0.039696 0.23884 -0.48111 -0.037758 0.00018415 -0.77868 0.00014302 
0.25871 -0.77806 -0.035408 0.25814 -0.51965 -0.033725 0.00037998 -0.82983 0.00023124 
0.27576 -0.82914 -0.030863 0.27526 -0.55371 -0.029465 0.00035901 -0.87405 0.00078895 
0.29085 -0.87319 -0.026329 0.29021 -0.58316 -0.025143 0.00031604 -0.91096 0.00024378 
0.30427 -0.9137 -0.021599 0.30277 -0.60735 -0.020594 0.00051591 -0.9401 -0.0001047 
0.31303 -0.93971 -0.017304 0.31268 -0.62752 -0.016378 0.00055469 -0.96295 0.00020674 
0.32057 -0.96233 -0.013749 0.32056 -0.6426 -0.012749 0.0005997 -0.98054 0.00019734 
0.327 -0.98332 -0.011731 0.32611 -0.65389 -0.010669 0.00063819 -0.99237 0.00017817 
0.32696 -0.9915 -0.010979 0.32727 -0.66451 -0.009878 0.00074957 -0.66619 0.00011985 
0 0 0 0 0 0 -0.011149 -0.045828 0.026186 
-0.018057 -0.031361 0.025603 -0.035932 -0.11002 0.042766 -0.038836 -0.07343 0.041384 
-0.062021 -0.18796 0.050245 -0.06335 -0.12549 0.048019 -0.089522 -0.2698 0.053103 
-0.089986 -0.18022 0.05054 -0.11776 -0.35433 0.053317 -0.11722 -0.23539 0.050756 
-0.14427 -0.43402 0.052135 -0.14404 -0.29008 0.049653 -0.17076 -0.51464 0.04988 
-0.17 -0.34231 0.047385 -0.19479 -0.58675 0.046942 -0.19451 -0.39211 0.044618 
-0.21795 -0.65613 0.043658 -0.21758 -0.43844 0.041499 -0.24006 -0.72298 0.039851 
-0.23898 -0.48075 0.037837 -0.25868 -0.77787 0.03575 -0.25821 -0.51957 0.033914 
-0.27641 -0.83226 0.031433 -0.27521 -0.55332 0.029723 -0.29021 -0.87337 0.026745 
-0.28977 -0.58308 0.025264 -0.30213 -0.91024 0.022122 -0.30193 -0.60765 0.020928 
-0.31194 -0.94004 0.017751 -0.31182 -0.62744 0.016784 -0.31961 -0.96252 0.014056 
-0.31971 -0.64256 0.01309 -0.32583 -0.98332 0.012119 -0.32513 -0.65384 0.011 
-0.32574 -0.99166 0.011446 -0.32622 -0.66448 0.010296 0 0 0 
0 0 0 0.020942 -0.015364 -0.013102 0.040379 -0.036486 -0.021495 
0.064195 -0.062781 -0.025265 0.090529 -0.090332 -0.026723 0.11751 -0.11816 -0.026745 
0.1443 -0.14552 -0.026015 0.17012 -0.1718 -0.024955 0.19472 -0.19663 -0.023478 
0.21766 -0.21974 -0.021723 0.23895 -0.24092 -0.019819 0.25819 -0.26006 -0.017712 
0.2753 -0.27701 -0.015466 0.29017 -0.29161 -0.013108 0.3027 -0.30384 -0.010744 
0.31294 -0.31363 -0.0085028 0.32099 -0.32128 -0.0067368 0.32688 -0.32743 -0.0057459 
0.32807 -0.33295 -0.0054304 0.00052523 -0.3332 0.00021608 0 0 0 
-0.020929 -0.015359 0.013086 -0.040339 -0.036478 0.021459 -0.064124 -0.062769 0.025215 
-0.090375 -0.09031 0.026625 -0.11731 -0.11817 0.026722 -0.14417 -0.14548 0.026053 
-0.17005 -0.17175 0.024942 -0.1947 -0.19655 0.023467 -0.2177 -0.21968 0.02169 
-0.23895 -0.24082 0.019794 -0.25813 -0.2599 0.017706 -0.27512 -0.27687 0.015477 
-0.28982 -0.29143 0.013185 -0.30218 -0.30363 0.010906 -0.31226 -0.31347 0.0087566 
-0.32017 -0.32113 0.007053 -0.32592 -0.32729 0.0060774 -0.32702 -0.33283 0.0057792 
0 0 0 0 0 0 0.021309 -5.9453e-05 -5.3643e-05 
0.040736 -0.00012406 -0.00010307 0.064368 -0.00022559 -0.00014665 0.090525 -0.00039945 -0.00013802 
0.1175 -0.00049388 -0.00010487 0.14429 -0.00050036 -9.7258e-05 0.17002 -0.00055333 -5.0019e-05 
0.19453 -0.00061756 -8.288e-05 0.21743 -0.00060277 -3.8187e-05 0.23846 -0.00048407 3.1638e-05 
0.25753 -0.00029577 2.2379e-05 0.2745 -9.5823e-05 0.00013363 0.28937 8.6143e-05 0.00025444 
0.30194 0.00031573 0.00032137 0.31227 0.00056814 0.00032971 0.32061 0.00086431 0.00050593 
0.32745 0.0013802 0.00067937 0.32837 0.0020727 0.00079511 0.00043659 0.0018953 4.4335e-06 
0 0 0 -0.021289 -5.0783e-05 3.2363e-05 -0.040691 -0.00011436 5.6933e-05 
-0.064295 -0.00021239 6.6101e-05 -0.090436 -0.00037315 5.4694e-05 -0.11743 -0.00045027 2.8336e-05 
-0.14426 -0.00046373 3.6597e-05 -0.17004 -0.00051261 -7.0296e-06 -0.1946 -0.00057702 -1.3059e-06 
-0.21755 -0.00053777 -8.2809e-05 -0.23864 -0.00042008 -0.00017388 -0.25771 -0.00020837 -0.00016211 
-0.27462 7.1067e-06 -0.00023125 -0.28937 0.00021563 -0.00029149 -0.30178 0.00045258 -0.0002654 
-0.31193 0.00069931 -0.000169 -0.32006 0.00096247 -0.00027088 -0.32667 0.0015165 -0.00039475 
-0.32745 0.0020485 -0.00033683 0 0 0 0 0 0 
0.020968 0.015258 0.012977 0.0404 0.036226 0.021334 0.064229 0.062294 0.025015 
0.090574 0.089556 0.026348 0.11744 0.11729 0.026592 0.14428 0.14454 0.025906 
0.17003 0.17054 0.024709 0.19471 0.19512 0.023321 0.21743 0.2183 0.0216 
0.23866 0.2396 0.019685 0.25733 0.25847 0.017692 0.27423 0.27527 0.015719 
0.28907 0.29073 0.013647 0.30206 0.3039 0.011384 0.31194 0.31376 0.0093112 
0.3203 0.322 0.008057 0.32664 0.32971 0.0071226 0.3276 0.33642 0.0064824 
0.00041587 0.33737 6.1951e-05 0 0 0 -0.020942 0.015267 -0.012998 
-0.040349 0.036237 -0.021378 -0.064152 0.062304 -0.025085 -0.090526 0.089558 -0.02647 
-0.11745 0.11728 -0.026683 -0.14434 0.14456 -0.02599 -0.1701 0.17051 -0.024795 
-0.19485 0.19514 -0.023446 -0.21761 0.21824 -0.021751 -0.23898 0.23965 -0.01988 
-0.25774 0.25852 -0.017882 -0.27466 0.27536 -0.015903 -0.28941 0.2908 -0.013775 
-0.30229 0.304 -0.011456 -0.31196 0.31383 -0.0092998 -0.32004 0.32207 -0.0079697 
-0.32605 0.32965 -0.006983 -0.32677 0.33635 -0.006177 0 0 0 
0 0 0 0.018151 0.03133 0.025545 0.038816 0.073268 0.041233 
0.063665 0.1252 0.047868 0.090419 0.17975 0.050273 0.11733 0.23487 0.050489 
0.14401 0.289 0.04935 0.17013 0.34144 0.047385 0.19516 0.39103 0.044376 
0.21755 0.43701 0.041098 0.23849 0.47914 0.037521 0.25784 0.51735 0.033545 
0.27567 0.55138 0.029741 0.28951 0.58142 0.025885 0.30164 0.60677 0.021323 
0.3122 0.62702 0.017042 0.32119 0.64322 0.014134 0.3258 0.65644 0.011868 
0.32758 0.66779 0.011162 0.0003506 0.66694 -0.00010147 0 0 0 
-0.018123 0.031338 -0.025562 -0.03875 0.073274 -0.041265 -0.063588 0.1252 -0.047918 
-0.090362 0.17976 -0.05035 -0.11787 0.23489 -0.050553 -0.144 0.28902 -0.049426 
-0.17082 0.34144 -0.047447 -0.19517 0.39103 -0.044472 -0.21864 0.43701 -0.041212 
-0.23869 0.47918 -0.037671 -0.25919 0.51741 -0.033704 -0.27603 0.55144 -0.029931 
-0.29107 0.58149 -0.026086 -0.30182 0.60685 -0.021529 -0.31354 0.62709 -0.017241 
-0.32082 0.64327 -0.014316 -0.32654 0.65645 -0.012026 -0.32651 0.66779 -0.011305 
0 0 0 0 0 0 1.6949e-05 0.040401 -1.3503e-05 
0.011231 0.045882 0.026185 2.6891e-05 0.10919 -2.0129e-05 0.036095 0.11004 0.04262 
4.1472e-05 0.18688 -1.4605e-05 0.062515 0.18803 0.050113 1.3811e-05 0.27049 8.4899e-07 
0.089924 0.26988 0.052825 -5.2355e-05 0.3522 6.7051e-06 0.11745 0.35223 0.052919 
-6.3382e-05 0.43317 -3.1273e-05 0.1441 0.43308 0.051917 -7.4443e-05 0.51213 -1.4848e-05 
0.17082 0.51204 0.050093 -9.3349e-05 0.58902 -2.5571e-05 0.19548 0.58678 0.046747 
-0.0001302 0.65555 -4.2775e-06 0.21851 0.65525 0.042905 -0.0002239 0.71813 1.9007e-05 
0.23865 0.71807 0.039475 -0.00032728 0.77628 -3.5896e-05 0.259 0.77642 0.036149 
-0.00035167 0.83335 -8.2556e-05 0.27667 0.82833 0.031317 -0.00034973 0.87211 -0.00013008 
0.29072 0.87216 0.026278 -0.0002882 0.90871 -0.0001758 0.30165 0.90882 0.022385 
-0.00020543 0.94003 -0.0002258 0.31323 0.9402 0.018795 1.1713e-06 0.96975 -0.00030246 
0.32165 0.96471 0.014735 0.00021094 0.98128 -0.00027295 0.32628 0.98245 0.012782 
0.00037985 1 -0.00017222 0.32746 0.996 0.012558 0 0 0 
-0.011196 0.04589 -0.026214 -0.036036 0.11003 -0.042658 -0.062427 0.18803 -0.050144 
-0.08992 0.26993 -0.052774 -0.11758 0.35233 -0.052937 -0.14426 0.43312 -0.051958 
-0.17099 0.51218 -0.050146 -0.19571 0.58682 -0.046759 -0.21882 0.65548 -0.042921 
-0.23915 0.71814 -0.039473 -0.25965 0.77655 -0.036232 -0.27739 0.82841 -0.031463 
-0.29142 0.87231 -0.026545 -0.30226 0.90891 -0.02273 -0.31364 0.94036 -0.019253 
-0.32171 0.96481 -0.015281 -0.32593 0.98271 -0.013349 -0.32671 0.99618 -0.013439 

mode4 3 315 float
0 0 0 0 0 0 0 0 0 
0 0 0 0 0 0 2.7506e-06 -0.025665 1.2858e-06 
-0.01996 -0.036576 -0.050412 -0.0070414 -0.047296 -0.049151 1.2863e-05 -0.11339 9.4169e-06 
-0.015599 -0.11721 -0.08908 -0.0075205 -0.12758 -0.090145 3.773e-05 -0.23361 8.2913e-06 
-0.0078235 -0.23654 -0.11154 -0.0034773 -0.24176 -0.11282 8.0967e-05 -0.37069 -0.00020929 
0.0017854 -0.37064 -0.11844 0.0016562 -0.36906 -0.11952 0.00021387 -0.50656 -3.6127e-07 
0.011923 -0.50381 -0.11065 0.0080054 -0.49486 -0.11154 4.8681e-05 -0.62459 -3.7893e-05 
0.020373 -0.62057 -0.089586 0.012889 -0.60451 -0.09034 0.00011294 -0.71291 -2.4489e-06 
0.027553 -0.70743 -0.057407 0.017754 -0.68544 -0.057946 1.5616e-05 -0.76026 0.00022661 
0.03278 -0.75411 -0.01741 0.020777 -0.72789 -0.017702 1.9329e-05 -0.76067 -0.00021623 
0.03577 -0.75411 0.027619 0.023028 -0.72522 0.02749 0.00010446 -0.71079 -1.4916e-05 
0.036449 -0.70399 0.074181 0.023564 -0.67425 0.074296 -1.5922e-05 -0.61011 6.2396e-05 
0.034923 -0.60377 0.11964 0.022549 -0.57519 0.11994 5.4485e-05 -0.46217 -6.7232e-06 
0.031462 -0.45647 0.16119 0.020392 -0.4307 0.16161 -9.7562e-06 -0.27297 0.00013541 
0.026722 -0.26823 0.1965 0.017414 -0.24624 0.19705 -2.1797e-05 -0.050663 -3.9583e-05 
0.021316 -0.047268 0.22423 0.013985 -0.029434 0.22483 -2.8456e-05 0.19506 -6.5884e-05 
0.015847 0.19791 0.24375 0.010539 0.21111 0.24439 -4.837e-05 0.45539 -6.2775e-05 
0.011022 0.45656 0.25552 0.0075006 0.46646 0.25587 -6.4464e-05 0.72185 -4.7694e-05 
0.0065873 0.72458 0.2611 0.0058547 0.72894 0.26154 -6.0782e-05 0.98566 -2.9554e-05 
0.0068976 0.98532 0.26259 0.0054549 0.99332 0.26317 -5.552e-05 0.99572 -2.1028e-05 
0 0 0 0 0 0 0.019964 -0.036579 0.050414 
0.0070533 -0.047297 0.04915 0.015625 -0.11721 0.089089 0.0075305 -0.12758 0.09013 
0.0079474 -0.23649 0.1115 0.0035802 -0.24174 0.1128 -0.0017176 -0.37046 0.11852 
-0.0016009 -0.36905 0.11955 -0.012538 -0.50621 0.11055 -0.0074712 -0.49455 0.11153 
-0.020472 -0.62022 0.089488 -0.012942 -0.60451 0.09037 -0.028426 -0.71001 0.05745 
-0.017805 -0.68514 0.057974 -0.032801 -0.75387 0.017336 -0.020732 -0.7279 0.017649 
-0.035773 -0.75388 -0.027546 -0.022985 -0.72521 -0.02742 -0.037304 -0.70647 -0.074247 
-0.02361 -0.67396 -0.074295 -0.035117 -0.60347 -0.11968 -0.0226 -0.57521 -0.11998 
-0.032021 -0.45807 -0.16116 -0.020428 -0.43051 -0.16165 -0.026794 -0.2681 -0.19655 
-0.017407 -0.24625 -0.19716 -0.021245 -0.047048 -0.22427 -0.013963 -0.029441 -0.22492 
-0.015901 0.1979 -0.24385 -0.010587 0.21111 -0.24448 -0.011133 0.45654 -0.25563 
-0.0076369 0.46647 -0.256 -0.006719 0.72458 -0.2612 -0.006038 0.72895 -0.26164 
-0.0070403 0.9853 -0.26269 -0.0056325 0.99334 -0.26329 0 0 0 
0 0 0 -0.0018554 -0.049391 -0.050407 -0.002027 -0.13037 -0.088809 
-0.00074062 -0.24285 -0.11044 0.0016709 -0.36716 -0.11682 0.0041719 -0.48926 -0.10834 
0.0069938 -0.59456 -0.086925 0.0091469 -0.67222 -0.055703 0.010393 -0.71263 -0.016169 
0.011741 -0.7082 0.028473 0.011461 -0.65695 0.074022 0.010913 -0.55892 0.11886 
0.0098582 -0.41588 0.15996 0.0083886 -0.23351 0.19502 0.0066766 -0.019053 0.22258 
0.0049265 0.21887 0.24222 0.0031524 0.47207 0.25487 0.0024012 0.73388 0.2611 
0.0017631 0.99753 0.26254 -0.00010138 1 -6.796e-05 0 0 0 
0.0018664 -0.049391 0.050407 0.0020634 -0.13037 0.088806 0.0008151 -0.24285 0.11044 
-0.0015331 -0.36716 0.11681 -0.0040003 -0.48932 0.10839 -0.006878 -0.59457 0.087007 
-0.0090606 -0.67228 0.055741 -0.010299 -0.71266 0.016208 -0.011623 -0.70823 -0.02845 
-0.011338 -0.65702 -0.074009 -0.010821 -0.55896 -0.11889 -0.0097704 -0.41594 -0.16005 
-0.0083295 -0.23354 -0.19513 -0.0066641 -0.019063 -0.22272 -0.0049812 0.21887 -0.24237 
-0.0032895 0.4721 -0.25503 -0.0026375 0.73392 -0.26127 -0.0019866 0.99759 -0.26265 
0 0 0 0 0 0 -2.1622e-07 -0.049446 -0.050419 
7.0486e-05 -0.13055 -0.088606 -0.00011117 -0.24259 -0.10938 0.00037847 -0.3655 -0.11536 
0.00044153 -0.48631 -0.10703 9.0136e-05 -0.59055 -0.086025 0.00022737 -0.667 -0.055112 
0.00070582 -0.70645 -0.015486 0.00030604 -0.70178 0.028392 0.00028669 -0.65097 0.073511 
0.00020661 -0.55358 0.1186 8.1645e-05 -0.41107 0.15941 -0.00025352 -0.2295 0.19428 
-0.00067106 -0.015993 0.22186 -0.0010503 0.22074 0.24132 -0.0012679 0.47301 0.25377 
-0.0012954 0.73436 0.26032 -0.0012596 0.99778 0.26278 -0.00018386 0.99678 -4.5454e-06 
0 0 0 1.211e-05 -0.049445 0.050418 -3.881e-05 -0.13055 0.088609 
0.00018009 -0.24259 0.10939 -0.00026961 -0.3655 0.11539 -0.00031136 -0.48632 0.10708 
4.8022e-05 -0.59057 0.086085 -9.3828e-05 -0.66704 0.055172 -0.00055179 -0.70648 0.015536 
-0.00011482 -0.70182 -0.028345 -6.4518e-05 -0.65102 -0.073493 2.0617e-05 -0.55364 -0.11863 
0.00011216 -0.41112 -0.15949 0.00038493 -0.22953 -0.19441 0.00072147 -0.016004 -0.222 
0.00099466 0.22074 -0.24149 0.0010935 0.47303 -0.25393 0.0010217 0.73437 -0.26052 
0.00090287 0.99796 -0.2633 0 0 0 0 0 0 
0.0018004 -0.049264 -0.05035 0.0019338 -0.13035 -0.088998 0.00075581 -0.24283 -0.11023 
-0.0017304 -0.36625 -0.11624 -0.0040399 -0.48826 -0.10867 -0.007013 -0.5944 -0.087199 
-0.0088107 -0.67138 -0.055123 -0.010491 -0.71086 -0.016111 -0.011258 -0.70701 0.028086 
-0.011481 -0.65651 0.073981 -0.010492 -0.55812 0.11873 -0.0097927 -0.41511 0.15954 
-0.009003 -0.23375 0.19436 -0.0080588 -0.020485 0.22191 -0.0070129 0.21634 0.24176 
-0.0058072 0.46925 0.25481 -0.0050726 0.73123 0.26102 -0.0049756 0.9946 0.26201 
-0.00025978 0.9982 -3.0018e-05 0 0 0 -0.0017913 -0.049262 0.050347 
-0.0019096 -0.13035 0.088997 -0.00071027 -0.24283 0.11024 0.0018246 -0.36624 0.11628 
0.0041882 -0.48824 0.10871 0.0071895 -0.59441 0.087238 0.0089936 -0.67137 0.055161 
0.010711 -0.71088 0.01616 0.011521 -0.707 -0.028044 0.011839 -0.65654 -0.073936 
0.010891 -0.55814 -0.11875 0.010118 -0.41514 -0.15963 0.0092005 -0.23377 -0.19444 
0.0081522 -0.020496 -0.222 0.0069776 0.21634 -0.24186 0.005585 0.46926 -0.25496 
0.0047184 0.73121 -0.2611 0.0044724 0.9946 -0.26194 0 0 0 
0 0 0 0.0068916 -0.047384 -0.04925 0.0071614 -0.12771 -0.090168 
0.0031218 -0.24203 -0.1129 -0.0026876 -0.36914 -0.11943 -0.0080723 -0.49476 -0.11144 
-0.013022 -0.60425 -0.090143 -0.018443 -0.68518 -0.058176 -0.022685 -0.72763 -0.017583 
-0.023717 -0.72477 0.027676 -0.023689 -0.6736 0.074265 -0.022975 -0.57448 0.11993 
-0.021883 -0.43052 0.16066 -0.018663 -0.24745 0.19593 -0.015356 -0.03232 0.22368 
-0.012073 0.20663 0.24348 -0.0090269 0.46141 0.25557 -0.0082924 0.72398 0.26115 
-0.0072428 0.98778 0.26293 -0.0003021 0.986 3.4767e-05 0 0 0 
-0.0068837 -0.047381 0.049243 -0.0071421 -0.1277 0.090156 -0.0030795 -0.24203 0.11289 
0.0027687 -0.36914 0.11943 0.008486 -0.49477 0.11144 0.013162 -0.60425 0.090142 
0.018928 -0.68518 0.058175 0.02286 -0.72764 0.017587 0.024446 -0.72478 -0.027666 
0.024004 -0.67363 -0.074242 0.024082 -0.57452 -0.11992 0.02219 -0.43055 -0.16066 
0.01904 -0.24747 -0.19591 0.015443 -0.03233 -0.22364 0.012164 0.20662 -0.24346 
0.0088364 0.46143 -0.25557 0.0071529 0.724 -0.26111 0.0068218 0.98778 -0.26285 
0 0 0 0 0 0 5.1768e-06 -0.025885 -5.5809e-06 
0.019778 -0.036927 -0.050544 8.7991e-06 -0.11434 -1.153e-05 0.015241 -0.11777 -0.089177 
1.2137e-05 -0.23457 -2.0905e-05 0.006882 -0.23759 -0.11177 4.092e-05 -0.37367 -3.2699e-05 
-0.0025766 -0.3722 -0.11845 8.7162e-05 -0.50678 -3.3861e-05 -0.012423 -0.50481 -0.11018 
0.00010511 -0.62415 -1.7504e-05 -0.020288 -0.6205 -0.089447 0.00011723 -0.71366 -2.0557e-05 
-0.029252 -0.70874 -0.058131 0.00013678 -0.7661 -2.4553e-05 -0.034321 -0.75662 -0.017331 
0.00017144 -0.76171 -3.6439e-05 -0.03756 -0.75532 0.028356 0.00023697 -0.70972 -3.8638e-05 
-0.036199 -0.70367 0.074271 0.00029143 -0.61022 1.9977e-05 -0.03617 -0.60424 0.11878 
0.00021912 -0.46801 7.1156e-05 -0.033473 -0.45853 0.16035 0.00012897 -0.27547 8.1646e-05 
-0.028478 -0.27134 0.19592 6.537e-05 -0.055026 8.7308e-05 -0.022649 -0.051382 0.22307 
-6.3016e-06 0.18923 0.00011026 -0.016987 0.19234 0.24336 -0.00013337 0.45239 0.00011681 
-0.012129 0.45062 0.25509 -0.00026425 0.71319 8.9535e-05 -0.0092131 0.71486 0.26122 
-0.00028055 0.98449 2.2215e-05 -0.007933 0.97918 0.26279 0 0 0 
-0.019768 -0.036923 0.050531 -0.015223 -0.11776 0.089152 -0.0068546 -0.23759 0.11173 
0.0026743 -0.37223 0.11836 0.012612 -0.50487 0.11013 0.020516 -0.62052 0.089406 
0.029496 -0.7088 0.058093 0.034613 -0.75664 0.017265 0.037919 -0.75542 -0.028418 
0.036701 -0.70372 -0.074351 0.036765 -0.60435 -0.11875 0.033927 -0.45858 -0.16017 
0.02873 -0.27136 -0.19577 0.022786 -0.051398 -0.2229 0.016985 0.19231 -0.24316 
0.011841 0.45065 -0.25478 0.0086418 0.71502 -0.26107 0.0073166 0.97927 -0.26279 

mode8 3 315 float
0 0 0 0 0 0 0 0 0 
0 0 0 0 0 0 -0.00068509 0.11319 -0.0004838 
-0.035334 0.12604 0.063145 -0.050962 0.084197 0.06382 -0.0015326 0.28885 -0.00076482 
-0.10128 0.28977 0.096902 -0.11127 0.19023 0.095156 -0.0024155 0.46525 -0.00089314 
-0.16142 0.468 0.10105 -0.16242 0.30856 0.096781 -0.0043465 0.62634 0.0016616 
-0.21759 0.62496 0.083916 -0.21487 0.41174 0.082181 -0.0072398 0.75695 -0.0005494 
-0.26557 0.74848 0.063872 -0.27105 0.49291 0.060886 -0.0045546 0.8292 0.00078718 
-0.28366 0.82559 0.035168 -0.27834 0.54707 0.032396 -0.0048008 0.85076 0.00078153 
-0.28417 0.84485 -0.0031106 -0.28187 0.56501 -0.0029497 -0.0033747 0.80843 -0.0015128 
-0.26769 0.80503 -0.039374 -0.26414 0.5415 -0.037529 -0.0028709 0.71015 0.0029756 
-0.23197 0.70852 -0.075234 -0.22915 0.47967 -0.071061 -0.0035791 0.56311 0.0022381 
-0.17987 0.55833 -0.10575 -0.17706 0.38232 -0.1008 -0.0024565 0.36878 0.00092969 
-0.11476 0.36603 -0.13032 -0.11193 0.25471 -0.12465 -0.0019746 0.14262 0.0025224 
-0.039963 0.14137 -0.14707 -0.037676 0.10417 -0.14124 -0.00072649 -0.099939 0.0040385 
0.039705 -0.099401 -0.15344 0.040714 -0.059413 -0.14799 -6.846e-06 -0.34204 0.003548 
0.1201 -0.35294 -0.14992 0.11712 -0.22296 -0.145 0.0018118 -0.56328 0.0029897 
0.18494 -0.56389 -0.13852 0.18574 -0.38066 -0.13386 0.0032179 -0.76046 0.0043797 
0.24388 -0.75626 -0.12375 0.24587 -0.51755 -0.11792 0.0045878 -0.9262 0.0047507 
0.29656 -0.95075 -0.11395 0.29012 -0.6328 -0.10719 0.0061944 -1.0462 0.0050944 
0.29606 -1.0398 -0.10999 0.30001 -0.74461 -0.10245 0.00678 -0.7614 0.0035447 
0 0 0 0 0 0 0.034079 0.12631 -0.064142 
0.04983 0.084239 -0.063828 0.098351 0.28994 -0.098269 0.10823 0.19018 -0.095037 
0.1561 0.46743 -0.10196 0.15734 0.30821 -0.096392 0.21014 0.62244 -0.087446 
0.20898 0.41146 -0.082108 0.26434 0.77805 -0.062709 0.24974 0.48846 -0.060156 
0.27691 0.8206 -0.032118 0.27262 0.54636 -0.032316 0.28794 0.87564 0.0040322 
0.27707 0.56087 0.0036284 0.26235 0.80334 0.042136 0.25922 0.54093 0.039489 
0.22656 0.70617 0.077009 0.22374 0.47892 0.072324 0.18171 0.57861 0.10867 
0.17332 0.3796 0.1028 0.11121 0.36486 0.1349 0.10808 0.25429 0.12806 
0.037508 0.14527 0.15227 0.034179 0.10316 0.14432 -0.040503 -0.10093 0.15979 
-0.042368 -0.059544 0.15191 -0.11472 -0.34043 0.15716 -0.11639 -0.22448 0.14942 
-0.18112 -0.56545 0.1468 -0.18315 -0.38048 0.13971 -0.23819 -0.75747 0.13222 
-0.2411 -0.51743 0.12375 -0.28752 -0.95079 0.12333 -0.28256 -0.63255 0.11376 
-0.28435 -1.0409 0.11967 -0.28971 -0.74414 0.10931 0 0 0 
0 0 0 -0.059193 0.038367 0.030226 -0.11143 0.087739 0.04536 
-0.16701 0.14339 0.047204 -0.21962 0.19235 0.043189 -0.259 0.23166 0.031862 
-0.28275 0.26031 0.017221 -0.28503 0.27244 0.002846 -0.26819 0.26637 -0.014017 
-0.23093 0.24191 -0.03162 -0.17815 0.19889 -0.047623 -0.11164 0.13972 -0.061928 
-0.036436 0.067026 -0.072899 0.042186 -0.0152 -0.079373 0.11895 -0.10186 -0.080672 
0.18964 -0.18693 -0.077174 0.25063 -0.26614 -0.072109 0.29803 -0.3399 -0.068559 
0.30881 -0.40964 -0.066999 0.0049341 -0.41307 0.0024202 0 0 0 
0.057874 0.038262 -0.029904 0.10841 0.087554 -0.044605 0.16234 0.14311 -0.046137 
0.21249 0.19187 -0.041073 0.25031 0.23175 -0.031194 0.27537 0.2596 -0.017825 
0.27888 0.27189 -0.0025071 0.26251 0.26541 0.014416 0.22579 0.24138 0.03235 
0.17309 0.19838 0.048508 0.10707 0.13915 0.062999 0.032732 0.066838 0.074099 
-0.044542 -0.015152 0.080925 -0.1195 -0.10136 0.082794 -0.18787 -0.18636 0.08006 
-0.24622 -0.26538 0.075669 -0.29069 -0.33902 0.072635 -0.29889 -0.40863 0.071335 
0 0 0 0 0 0 -0.060518 -0.0065453 -0.0055921 
-0.11206 -0.016313 -0.0080854 -0.16885 -0.02694 -0.0069465 -0.21975 -0.033298 -0.0041472 
-0.25955 -0.036833 -7.7186e-05 -0.28375 -0.03623 0.0050965 -0.28441 -0.028214 0.0092222 
-0.26643 -0.015096 0.012867 -0.22925 -0.00033701 0.013657 -0.17522 0.013543 0.011374 
-0.10895 0.024357 0.0078598 -0.034686 0.030731 0.0020943 0.042512 0.030379 -0.0041519 
0.11775 0.022989 -0.0099436 0.18748 0.0095259 -0.014713 0.24954 -0.007801 -0.016715 
0.30402 -0.025905 -0.017222 0.31219 -0.043776 -0.017027 0.0040143 -0.045077 0.00056191 
0 0 0 0.05903 -0.0067131 0.0059976 0.10896 -0.016501 0.0089599 
0.16418 -0.027192 0.0084598 0.21398 -0.033798 0.0056 0.25366 -0.037651 0.0011676 
0.27831 -0.036846 -0.0047239 0.27952 -0.028796 -0.0094182 0.26186 -0.015514 -0.01307 
0.22483 -0.00079802 -0.013933 0.17114 0.013284 -0.011687 0.10511 0.024154 -0.0085203 
0.031142 0.030723 -0.0028814 -0.045458 0.030622 0.0033778 -0.11952 0.023398 0.0097083 
-0.18736 0.01006 0.01511 -0.24687 -0.0072929 0.017879 -0.29826 -0.025061 0.019064 
-0.30383 -0.043836 0.020534 0 0 0 0 0 0 
-0.060037 -0.052124 -0.041149 -0.11267 -0.12083 -0.063017 -0.16916 -0.19755 -0.062472 
-0.22316 -0.26102 -0.049389 -0.25999 -0.30929 -0.033117 -0.28464 -0.33492 -0.0079698 
-0.28488 -0.32768 0.018752 -0.26935 -0.29374 0.040065 -0.2297 -0.24031 0.059155 
-0.17617 -0.16939 0.071791 -0.1073 -0.087572 0.077489 -0.033488 -0.0033138 0.076561 
0.04288 0.076433 0.070377 0.11951 0.147 0.05997 0.18697 0.20093 0.048402 
0.24826 0.245 0.040529 0.29794 0.28479 0.034173 0.3057 0.31667 0.029215 
0.0036271 0.32572 -0.00034454 0 0 0 0.058474 -0.05231 0.041522 
0.10945 -0.121 0.063793 0.16441 -0.19763 0.063674 0.21828 -0.26092 0.051454 
0.25592 -0.30899 0.034214 0.28122 -0.33528 0.0083288 0.28138 -0.32715 -0.018973 
0.26588 -0.29393 -0.040865 0.22597 -0.23975 -0.059912 0.173 -0.16951 -0.072972 
0.10445 -0.08754 -0.079073 0.030131 -0.0032612 -0.07915 -0.046622 0.076599 -0.072621 
-0.12272 0.14741 -0.062234 -0.18867 0.20121 -0.050095 -0.24749 0.24542 -0.041915 
-0.29383 0.2843 -0.034737 -0.29856 0.31621 -0.02836 0 0 0 
0 0 0 -0.052419 -0.10035 -0.076633 -0.11012 -0.22696 -0.11346 
-0.16977 -0.36919 -0.11476 -0.22671 -0.49091 -0.091596 -0.26108 -0.57752 -0.058844 
-0.27999 -0.62254 -0.019647 -0.28647 -0.62324 0.021907 -0.27533 -0.57577 0.064716 
-0.23166 -0.47985 0.10294 -0.17423 -0.34847 0.12724 -0.10639 -0.19711 0.1425 
-0.033058 -0.036387 0.14359 0.043617 0.12262 0.13946 0.11866 0.26993 0.12412 
0.1898 0.39531 0.10385 0.25463 0.49908 0.086148 0.29101 0.58263 0.071691 
0.30595 0.65332 0.06702 0.0029615 0.64509 -0.0020029 0 0 0 
0.050886 -0.10056 0.077012 0.10669 -0.22704 0.11418 0.16514 -0.36915 0.11572 
0.22182 -0.49094 0.092804 0.26808 -0.57762 0.059487 0.27555 -0.62274 0.019903 
0.29419 -0.6233 -0.022213 0.27071 -0.57576 -0.065353 0.23542 -0.47977 -0.10388 
0.17052 -0.34841 -0.1286 0.1081 -0.19714 -0.14425 0.029798 -0.036358 -0.14621 
-0.050835 0.12304 -0.14241 -0.12156 0.27036 -0.12723 -0.1984 0.39564 -0.10749 
-0.25313 0.49961 -0.090036 -0.29791 0.58281 -0.075366 -0.29709 0.65311 -0.070631 
0 0 0 0 0 0 -0.00088829 -0.12574 0.00061672 
-0.033232 -0.14308 -0.078025 -0.0016376 -0.33785 0.00082863 -0.10363 -0.33123 -0.11571 
-0.0024089 -0.53486 0.00055227 -0.17369 -0.53957 -0.11964 -0.0021131 -0.74222 -3.1719e-05 
-0.22901 -0.71918 -0.096146 -0.00093647 -0.84488 -0.00035915 -0.27041 -0.84165 -0.058114 
-0.00075468 -0.90564 0.00010631 -0.28395 -0.90308 -0.020927 -0.00077828 -0.91775 -3.6236e-07 
-0.29772 -0.9144 0.018481 -0.001138 -0.88533 -8.9332e-05 -0.27924 -0.85631 0.067241 
-0.0013263 -0.71694 -0.00043994 -0.24063 -0.71612 0.11019 -0.0010138 -0.52263 -0.0009523 
-0.17433 -0.52269 0.13266 -0.00073184 -0.30475 -0.00065549 -0.10813 -0.30345 0.14711 
-0.001514 -0.070743 -0.00075649 -0.032421 -0.068099 0.1514 -0.0021137 0.17151 -0.0012682 
0.046054 0.16875 0.14563 -0.0021235 0.39067 -0.0018356 0.11905 0.39119 0.13011 
-0.0017678 0.58934 -0.0026368 0.19587 0.59166 0.11488 -0.00027014 0.79039 -0.0035091 
0.2574 0.75545 0.090697 0.0013083 0.86566 -0.0036958 0.29419 0.87491 0.07973 
0.0033508 1 -0.0040502 0.30502 0.96458 0.078227 0 0 0 
0.031496 -0.14341 0.079273 0.10029 -0.33114 0.11724 0.16881 -0.53942 0.12075 
0.22526 -0.71996 0.095076 0.26897 -0.84359 0.057951 0.28309 -0.90382 0.020978 
0.29663 -0.91665 -0.018489 0.27749 -0.85671 -0.067126 0.23835 -0.71773 -0.11122 
0.17259 -0.52293 -0.13403 0.10674 -0.30397 -0.14881 0.029467 -0.067977 -0.1523 
-0.050464 0.16952 -0.14841 -0.12355 0.39188 -0.13372 -0.1994 0.59278 -0.12032 
-0.25856 0.75635 -0.09703 -0.29227 0.87746 -0.087426 -0.29877 0.96587 -0.088306 

