/* XPM */
static const char * player_play_xpm[] = {
"32 32 120 2",
"  	c None",
". 	c #3269CE",
"+ 	c #3268CC",
"@ 	c #3268CB",
"# 	c #3269D1",
"$ 	c #3269D0",
"% 	c #326BD4",
"& 	c #326DDC",
"* 	c #326AD3",
"= 	c #3271E4",
"- 	c #3277F6",
"; 	c #387EFF",
"> 	c #558CF1",
", 	c #8AA8E0",
"' 	c #7EA0E0",
") 	c #3B80FF",
"! 	c #3278F9",
"~ 	c #3272E9",
"{ 	c #9BB4E4",
"] 	c #C8D6F0",
"^ 	c #EEF2FA",
"/ 	c #F6F8FC",
"( 	c #DBE4F5",
"_ 	c #A3BBE6",
": 	c #6693E6",
"< 	c #3273EB",
"[ 	c #3265C6",
"} 	c #326CD8",
"| 	c #327AFE",
"1 	c #8EABE2",
"2 	c #DDE6F6",
"3 	c #EDF2FB",
"4 	c #B0C5EB",
"5 	c #4984F0",
"6 	c #3266C7",
"7 	c #326DDB",
"8 	c #4F89F2",
"9 	c #B4C8EC",
"0 	c #E6EDF9",
"a 	c #D4E0F4",
"b 	c #729AE2",
"c 	c #3265C3",
"d 	c #326CD6",
"e 	c #4D87F3",
"f 	c #C4D4F1",
"g 	c #DCE5F6",
"h 	c #D4DFF5",
"i 	c #6D97E4",
"j 	c #AFC4EB",
"k 	c #D2DEF5",
"l 	c #92AFE6",
"m 	c #CBD8F2",
"n 	c #568AE9",
"o 	c #3267C9",
"p 	c #3272E8",
"q 	c #8FACE2",
"r 	c #C8D7F2",
"s 	c #FFFFFF",
"t 	c #4986F5",
"u 	c #B7CBED",
"v 	c #BDCFF0",
"w 	c #83A3DC",
"x 	c #8BAAE2",
"y 	c #B3C8ED",
"z 	c #AEC4EC",
"A 	c #9BB6E6",
"B 	c #82A3DF",
"C 	c #9FB8E8",
"D 	c #A8BFEB",
"E 	c #90ADE3",
"F 	c #729BE4",
"G 	c #3263BE",
"H 	c #4A86F4",
"I 	c #9EB8E8",
"J 	c #7EA1E0",
"K 	c #3265C4",
"L 	c #5B8FEE",
"M 	c #8AAAE4",
"N 	c #6293ED",
"O 	c #3C81FF",
"P 	c #6996E8",
"Q 	c #87A8E4",
"R 	c #3266C8",
"S 	c #5E91EE",
"T 	c #7A9FE4",
"U 	c #4D88F6",
"V 	c #3D81FD",
"W 	c #4987FA",
"X 	c #4786FA",
"Y 	c #4083FF",
"Z 	c #4284FD",
"` 	c #4184FF",
" .	c #3262BC",
"..	c #3272E6",
"+.	c #4486FF",
"@.	c #4D8AFA",
"#.	c #3B77E6",
"$.	c #5E92F1",
"%.	c #5C8EEC",
"&.	c #6D99EB",
"*.	c #396FD1",
"=.	c #759DE6",
"-.	c #7AA0E5",
";.	c #3F72D2",
">.	c #80A3E1",
",.	c #83A6E6",
"'.	c #3262BB",
").	c #3C70D0",
"!.	c #7E9FDD",
"~.	c #8AABE8",
"{.	c #5987DC",
"].	c #8EACE4",
"^.	c #91AFE8",
"/.	c #396DCE",
"(.	c #5785D8",
"_.	c #829FD6",
":.	c #94B1E5",
"<.	c #97B4EA",
"[.	c #3B6ECC",
"}.	c #4F7DD0",
"                                                                ",
"                          . . + + + @                           ",
"                    # # $ . % & & % + + + +                     ",
"                * # % = - ; > , , ' ) ! = # + @                 ",
"              # # ~ ; { ] ^ / / / / / ( _ : < + + [             ",
"            # } | 1 2 ^ ^ ^ ^ ^ ^ ^ 3 3 3 3 4 5 } + 6           ",
"          # 7 8 9 0 0 0 0 0 0 0 0 0 0 0 0 0 0 a b } + c         ",
"        # d e f g g g g g g g g g g g g g g g g h i } +         ",
"      $ . | j k k k k k k l k k k k k k k k k k k m n + o       ",
"      . p q r r r r r r r s l r r r r r r r r r r r j < +       ",
"    + # t u v v v v v v v s s l v v v v v v v v v v v w # o     ",
"    + = x y y y y y y y y s s s l y y y y y y y y z A B = +     ",
"    + - C D D D D D D D D s s s s l D D D D D E F ) ) ) - + G   ",
"  + + H I I I I I I I I I s s s s s l I I I I J ) ) ) ) ; + K   ",
"  + % L l l l l l l l l l s s s s s s l l M N N O O ) ) ) # o   ",
"  + & P Q Q Q l l l l l l s s s s s s s N O O O O ) O ) ) & R   ",
"  + & S T T T l l l l M N s s s s s s s s O O O O O O ) ) & R   ",
"  + % U N N N N N N O O O s s s s s s s O O O O O O O O O # R   ",
"  @ + V W W W W W W W W X s s s s s s O O O O O O O O Y ) + c   ",
"    + ! Z Z Z Z Z Z ` ` ` s s s s s O O O O O O O ` ` ` ! +  .  ",
"    + ..+.+.+.+.+.+.+.+.+.s s s s O O O O O O O O +.+.+...+     ",
"    + # W @.@.@.@.@.@.@.O s s s O O O O O @.@.@.@.@.@.W # R     ",
"      + #.$.$.$.$.$.$.$.$.s s $.$.$.$.$.$.$.$.$.$.$.$.#.+  .    ",
"      @ + %.&.&.&.&.&.&.&.s &.&.&.&.&.&.&.&.&.&.&.&.%.+ R       ",
"        + *.=.-.-.-.-.-.-.-.-.-.-.-.-.-.-.-.-.-.-.=.*.+         ",
"          + ;.>.,.,.,.,.,.,.,.,.,.,.,.,.,.,.,.,.>.;.+ '.        ",
"            + ).!.~.~.~.~.~.~.~.~.~.~.~.~.~.~.!.).+ '.          ",
"              + + {.].^.^.^.^.^.^.^.^.^.^.].{.+ + '.            ",
"                o + /.(._.:.<.<.<.<.:._.(./.+ R                 ",
"                    o + + + [.}.}.[.+ + + R  .                  ",
"                        G K o R R R c  .                        ",
"                                                                "};
