/* XPM */
static const char *pickpoint_20x20[]={
"20 20 158 2",
"Qt c None",
"#4 c #054581",
"#5 c #0c4b87",
"ad c #111111",
".S c #1b1a1a",
"av c #1d1d1d",
"ar c #242424",
"aa c #2b1d1d",
"#G c #3383c8",
"#1 c #3b3b3b",
"#m c #3e3737",
"#A c #3e3939",
".9 c #3e3a3a",
"#P c #434343",
"ag c #456481",
"am c #464646",
"#M c #483d31",
"an c #484848",
"ax c #4c4c4c",
"#2 c #4d4d4d",
"#S c #4e9edb",
".7 c #535252",
"#B c #56403f",
"#j c #58201f",
"at c #5a5a5a",
"#6 c #5f707d",
"#E c #62b1e5",
"aB c #636363",
"a# c #650500",
"a. c #6a0a06",
"#. c #6d2f2e",
".T c #6d5f5d",
".R c #6e4240",
"#y c #6e6e6e",
"#n c #744e3b",
"ah c #74899d",
"#Y c #753123",
"#Q c #797979",
"ap c #7a7a7a",
"#U c #829db2",
"#T c #82c9f0",
"aj c #837979",
"#Z c #8b8b8b",
"az c #909090",
"aw c #939393",
"ay c #949494",
"aA c #969696",
"#r c #97afc2",
"af c #99aaba",
"#R c #99adbe",
"as c #9b9b9b",
"#H c #9bb3cb",
"#9 c #a26964",
"ak c #a6a6a6",
".D c #a87472",
"#F c #b0ebfd",
"ae c #b3b3b3",
".8 c #b4b4b4",
"al c #b6b6b6",
".Z c #b74c45",
"#s c #b8ad9d",
"aq c #b9b9b9",
"#I c #bc615c",
"#x c #c22625",
"#u c #c50702",
"#3 c #c8d0d6",
"#J c #ce3d2b",
".Y c #cf0904",
"#V c #d2b798",
"#X c #d68f6a",
"ai c #d7c0bf",
"#b c #dc6046",
".6 c #dc6968",
"#k c #dcdcdc",
"#q c #dce7f1",
".K c #dd0903",
".x c #dd2621",
".L c #dd907e",
"## c #df3937",
"#0 c #e1e1e1",
"#D c #e1e9f1",
".U c #e4a9a6",
"#7 c #e4c7a7",
".E c #e4cfcd",
"#p c #e6b48f",
"ac c #e6e6e6",
"au c #e7e7e7",
"#v c #e9110c",
"#a c #ea201c",
"#f c #ea917a",
"#o c #ebbe8e",
"#C c #ebebeb",
"#K c #ed7c5d",
"#N c #ededed",
"#g c #f00d09",
".X c #f22523",
"#t c #f4c6a8",
".3 c #f59997",
"#w c #f82421",
"#c c #f8c291",
".n c #f8d5d5",
"ao c #f8f8f8",
".J c #f92927",
".m c #f9302c",
"#W c #fac895",
".y c #fbca9b",
"ab c #fbfbfb",
".w c #fc1b18",
".O c #fcb6b4",
"#L c #fcbc8d",
"#z c #fdfdfd",
".4 c #fe1c19",
"#h c #fe2f2c",
".e c #fe7c79",
"#O c #fefefe",
".P c #ff2320",
".l c #ff2624",
".B c #ff2825",
".c c #ff2c29",
".d c #ff3734",
".b c #ff3835",
".p c #ff4846",
".v c #ff4c49",
".g c #ff4d4a",
"#i c #ff4e4b",
".5 c #ff514e",
".k c #ff5452",
".W c #ff5552",
".I c #ff5c5a",
".a c #ff6260",
".C c #ff6866",
".Q c #ff6966",
".h c #ff7e7c",
".j c #ff817e",
".u c #ff8885",
".V c #ff8a88",
".f c #ff8d8c",
".i c #ff9290",
".o c #ff9593",
".q c #ff9794",
".H c #ff9996",
".# c #ffbab9",
".t c #ffbdbb",
".r c #ffcdca",
".z c #ffcf9b",
".1 c #ffcf9c",
".G c #ffd0ce",
".s c #ffd6d3",
".2 c #ffdfbd",
".0 c #ffe3c6",
".N c #ffe6cb",
"#d c #ffe7cd",
"#8 c #ffe7cf",
".M c #ffe8cf",
"#e c #ffe9d3",
".F c #ffe9e8",
".A c #ffebd5",
"#l c #ffffff",
"QtQtQtQtQtQtQtQtQtQtQtQtQtQtQtQtQtQtQtQt",
"QtQtQtQtQtQtQtQtQtQtQtQtQtQtQtQtQtQtQtQt",
"QtQtQtQtQtQtQtQtQtQtQtQtQtQtQtQtQtQtQtQt",
"QtQtQtQtQtQtQt.#.a.b.c.d.eQtQtQtQtQtQtQt",
"QtQtQtQtQtQt.f.g.h.i.j.k.l.m.nQtQtQtQtQt",
"QtQtQtQtQt.o.p.q.r.s.t.u.v.w.x.y.z.z.z.A",
"QtQtQtQtQt.B.C.D.E.F.G.H.I.J.K.LQt.M.z.N",
"QtQtQtQt.O.P.Q.R.S.T.U.V.W.X.Y.Z.0.1.2Qt",
"QtQtQtQt.3.4.5.6.7.8.9#.###a#b#c.1#dQtQt",
"QtQtQt#e#f#g#h#i#j#k#l.8#m#n#o#pQtQtQtQt",
"Qt#q#r#s#t#u#v#w#x#y#l#l#z.8#A#B#CQtQtQt",
"#D#E#F#G#H#I#J#K#L#M#N#l#l#l#O.8#P#Q#CQt",
"#R#S#T#U#V.1.z#W#X#Y#Z#l#l#l#l#l#0#1#2Qt",
"#3#4#5#6#7#8Qt#9a.a#aaab#l#l#lacadaeQtQt",
"QtafagahQtQtQtQtQtaiajak#l#l#l#lalamQtQt",
"QtQtQtQtQtQtQtQtQtQtQtan#Oaeao#l#lalamQt",
"QtQtQtQtQtQtQtQtQtQtQtapaqar#2ao#lasatQt",
"QtQtQtQtQtQtQtQtQtQtQtauavasawaxayatQtQt",
"QtQtQtQtQtQtQtQtQtQtQtQtazQtQtaAaBQtQtQt",
"QtQtQtQtQtQtQtQtQtQtQtQtQtQtQtQtQtQtQtQt"};
