/* XPM */
static const char * pickpoints[] = {
"30 30 111 2",
"  	c None",
". 	c #007BD0",
"+ 	c #0084DA",
"@ 	c #0067BA",
"# 	c #004D93",
"$ 	c #0063B8",
"% 	c #005AA9",
"& 	c #003E76",
"* 	c #007ACF",
"= 	c #0092E1",
"- 	c #00A2F1",
"; 	c #0093E2",
"> 	c #004A8F",
", 	c #007DD3",
"' 	c #0061B1",
") 	c #0070C5",
"! 	c #005099",
"~ 	c #005FB0",
"{ 	c #004482",
"] 	c #00050A",
"^ 	c #00488C",
"/ 	c #005BAB",
"( 	c #0056A2",
"_ 	c #003B72",
": 	c #0058A6",
"< 	c #005AA8",
"[ 	c #003F79",
"} 	c #000000",
"| 	c #006BC0",
"1 	c #002428",
"2 	c #006CB8",
"3 	c #008FDF",
"4 	c #009FEE",
"5 	c #0054A1",
"6 	c #004F97",
"7 	c #000910",
"8 	c #008CDF",
"9 	c #00488B",
"0 	c #0055A1",
"a 	c #0069C0",
"b 	c #00539F",
"c 	c #003A71",
"d 	c #0059AA",
"e 	c #0069BF",
"f 	c #003A6F",
"g 	c #00417D",
"h 	c #0061B5",
"i 	c #004483",
"j 	c #005EB1",
"k 	c #0065BA",
"l 	c #000001",
"m 	c #000508",
"n 	c #006BC1",
"o 	c #003235",
"p 	c #000101",
"q 	c #0090E0",
"r 	c #00A2EF",
"s 	c #0056A3",
"t 	c #0088DC",
"u 	c #001215",
"v 	c #000A14",
"w 	c #000103",
"x 	c #007CD0",
"y 	c #008EE0",
"z 	c #0056A4",
"A 	c #0070C7",
"B 	c #0058A5",
"C 	c #003B71",
"D 	c #005BAC",
"E 	c #0071C7",
"F 	c #00539D",
"G 	c #00396F",
"H 	c #004F98",
"I 	c #006DC3",
"J 	c #005DAA",
"K 	c #003E77",
"L 	c #000203",
"M 	c #002D57",
"N 	c #0062B5",
"O 	c #006FC3",
"P 	c #004A8E",
"Q 	c #00386E",
"R 	c #003566",
"S 	c #00396E",
"T 	c #003465",
"U 	c #00376D",
"V 	c #003769",
"W 	c #00386C",
"X 	c #0078CE",
"Y 	c #004754",
"Z 	c #0054A0",
"` 	c #008FE1",
" .	c #0071C5",
"..	c #00333A",
"+.	c #0067BD",
"@.	c #007FD4",
"#.	c #005BAA",
"$.	c #003B74",
"%.	c #0059A7",
"&.	c #006EC3",
"*.	c #0077CF",
"=.	c #0075CB",
"-.	c #00274B",
";.	c #003C74",
">.	c #003668",
",.	c #003B73",
"'.	c #0074CA",
").	c #0061B4",
"!.	c #0093E4",
"~.	c #0080D6",
"{.	c #003F7B",
"                                                            ",
"                                .                           ",
"                          +     @                           ",
"                          # $ % &                           ",
"                                                            ",
"                                                            ",
"                                *           =               ",
"              -   ; >     ,     '           )               ",
"              ! ~ { ]     ^ / ( _       : < [               ",
"                    } } }                                   ",
"                      } } }                                 ",
"        |             } } } } 1 2           3               ",
"  4     5           6   } } } } 7           *           8 9 ",
"  0 a b c     d e 6 f     } } } } } } g $ h i       j k 9   ",
"                          } } } } } } l                     ",
"                            m } } } }                       ",
"        n                   o } } } } p     q               ",
"  r     s           !     t   u v w } } }   x           y ^ ",
"  z A B C     D E F G     H I J K   } } } L M       N O P   ",
"    Q R         S T         U V       } } } p         W     ",
"                                        p } } }             ",
"                                X       Y } } } }           ",
"                    Z     `      .        ..} } } }         ",
"              +.@.#.$.    %., &.i       *.=.-.} } } }       ",
"                ;.>.        ,.S         ,.c     } } } }     ",
"                                                  } } }     ",
"                                                    }       ",
"                                '.                          ",
"                          ).!.~.P                           ",
"                            {.;.                            "};
