/* XPM */
static const char * RMsurface[] = {
"30 30 157 2",
"  	c None",
". 	c #FF0500",
"+ 	c #FF0400",
"@ 	c #FF0300",
"# 	c #FF0200",
"$ 	c #FE0500",
"% 	c #F90500",
"& 	c #EA0500",
"* 	c #FF0600",
"= 	c #EF0500",
"- 	c #D70500",
"; 	c #FF0100",
"> 	c #DD0500",
", 	c #FE0100",
"' 	c #FB0200",
") 	c #FA0500",
"! 	c #E60500",
"~ 	c #C70500",
"{ 	c #FE0200",
"] 	c #F90200",
"^ 	c #F60400",
"/ 	c #CA0500",
"( 	c #AB0500",
"_ 	c #F50200",
": 	c #EC0400",
"< 	c #AA0500",
"[ 	c #F60200",
"} 	c #E60300",
"| 	c #DC0500",
"1 	c #C60500",
"2 	c #F80500",
"3 	c #E00400",
"4 	c #D10500",
"5 	c #C00500",
"6 	c #A30500",
"7 	c #800500",
"8 	c #FB0500",
"9 	c #FA0100",
"0 	c #F40300",
"a 	c #DD0400",
"b 	c #C80500",
"c 	c #B60500",
"d 	c #9A0500",
"e 	c #7B0500",
"f 	c #E70500",
"g 	c #FA0600",
"h 	c #F40100",
"i 	c #F10100",
"j 	c #EA0300",
"k 	c #D20500",
"l 	c #BF0500",
"m 	c #AD0500",
"n 	c #8F0500",
"o 	c #770500",
"p 	c #D90500",
"q 	c #F30200",
"r 	c #EA0100",
"s 	c #E50300",
"t 	c #C70600",
"u 	c #9E0500",
"v 	c #830500",
"w 	c #700500",
"x 	c #C90500",
"y 	c #E90500",
"z 	c #F20100",
"A 	c #E00200",
"B 	c #D30400",
"C 	c #CB0500",
"D 	c #BB0500",
"E 	c #A60500",
"F 	c #8C0500",
"G 	c #750500",
"H 	c #680500",
"I 	c #B90500",
"J 	c #D50500",
"K 	c #F70500",
"L 	c #FE0300",
"M 	c #F20001",
"N 	c #F30100",
"O 	c #E70200",
"P 	c #D50300",
"Q 	c #BC0500",
"R 	c #930500",
"S 	c #820500",
"T 	c #6D0500",
"U 	c #640500",
"V 	c #D60500",
"W 	c #F20400",
"X 	c #FC0300",
"Y 	c #F80100",
"Z 	c #EE0100",
"` 	c #E40200",
" .	c #E00300",
"..	c #D20400",
"+.	c #C20500",
"@.	c #B80500",
"#.	c #A90500",
"$.	c #950500",
"%.	c #760500",
"&.	c #670500",
"*.	c #CF0500",
"=.	c #EE0400",
"-.	c #F00300",
";.	c #F00200",
">.	c #EE0200",
",.	c #ED0200",
"'.	c #E60200",
").	c #DB0300",
"!.	c #D10300",
"~.	c #C90400",
"{.	c #B40600",
"].	c #A50500",
"^.	c #630500",
"/.	c #A80500",
"(.	c #BA0500",
"_.	c #C40500",
":.	c #CC0500",
"<.	c #D80500",
"[.	c #DB0400",
"}.	c #DC0400",
"|.	c #D90400",
"1.	c #D60400",
"2.	c #CE0400",
"3.	c #C30500",
"4.	c #9C0500",
"5.	c #8E0500",
"6.	c #810500",
"7.	c #730500",
"8.	c #650500",
"9.	c #880500",
"0.	c #9D0500",
"a.	c #B50500",
"b.	c #BD0500",
"c.	c #C20600",
"d.	c #C30600",
"e.	c #BF0600",
"f.	c #BC0600",
"g.	c #B80600",
"h.	c #B20600",
"i.	c #910500",
"j.	c #850500",
"k.	c #7C0500",
"l.	c #690500",
"m.	c #620500",
"n.	c #6F0500",
"o.	c #960500",
"p.	c #8D0500",
"q.	c #860500",
"r.	c #7F0500",
"s.	c #6C0500",
"t.	c #740500",
"u.	c #870500",
"v.	c #8A0500",
"w.	c #790500",
"x.	c #780500",
"y.	c #6B0500",
"z.	c #660500",
"                                                            ",
"                                                            ",
"                        . + + + . .                         ",
"                  . @ # @ @ @ @ # # + . .                   ",
"                @ @ + + + @ @ @ . + # # . $                 ",
"            . # + + +           @ # . # # + % &             ",
"          . @ + @                   # * # # $ = -           ",
"        . @ # +                     + @ . ; @ % >           ",
"        . # . @                       # * , ' ) ! ~         ",
"      . + # +                         # . { ] ^ & / (       ",
"      . @ @ @                         ; . # _ : ! / <       ",
"      . # @ @                         ; * # [ } | 1 <       ",
"    2 . # @ + +                     @ @ * ; [ 3 4 5 6 7     ",
"    = $ @ ; . #                   + # 8 ) 9 0 a b c d e     ",
"    f $ @ ; + + ; +             + # . g h i j k l m n o     ",
"    p % + # ; * . @ # . . + @ ; # . * q r s a t c u v w     ",
"    x y % @ # # * * + @ @ @ + + * . ; z A B C D E F G H     ",
"    I J y K L ; ; # . * * * * 2 q M N O P 1 Q < R S T U     ",
"      5 V f W X # ; ; ; ; ; ; Y Z `  ...+.@.#.$.v %.&.      ",
"      E 5 *.| ! =.-.-.;.>.,.,.'.).!.~.l {.].R S G T ^.      ",
"      F /.(._.:.J <.[.}.|.1.B 2.3.Q c < 4.5.6.7.8.^.^.      ",
"        9.0.m a.b.5 c.d.c.e.f.g.h.#.u i.j.k.%.l.^.m.        ",
"        n.7 n d 6 /.< m m #.].u o.p.q.r.G s.&.^.m.          ",
"          l.t.7 u.p.5.n n p.v.j.r.w.t.n.H U ^.^.m.          ",
"            U &.T 7.o x.x.%.t.7.w y.&.8.^.m.m.m.            ",
"                m.^.8.z.z.8.U ^.^.^.m.^.^.m.                ",
"                  m.^.^.^.^.m.m.m.m.m.m.m.                  ",
"                        ^.^.m.m.m.^.                        ",
"                                                            ",
"                                                            "};
