$NOD
21
1 1 3 1
2 0 2 1
3 0 3 0
4 1 2 0
5 0 2 0
6 1 3 0
7 0 3 1
8 1 2 1
9 1 4 1
10 0 4 1
11 1 4 0
12 0 4 0
13 0.5 1.5 0.5
14 0 1 0
15 0 1 1
16 1 1 1
17 1 1 0
18 0 0 0
19 0 0 1
20 1 0 1
21 1 0 0
$ENDNOD
$ELM
15
1 4 1 1 4 1 2 3 4
2 4 1 1 4 1 2 3 7
3 4 1 1 4 1 2 4 8
4 4 1 1 4 1 3 4 6
5 4 1 1 4 2 3 4 5
6 6 1 1 6 7 1 3 10 9 12
7 6 1 1 6 6 3 1 11 12 9
8 4 1 1 4 13 2 4 8
9 4 1 1 4 13 2 5 4
10 7 1 1 5 4 17 16 8 13
11 7 1 1 5 14 17 4 5 13
12 7 1 1 5 14 15 2 5 13
13 7 1 1 5 15 16 8 2 13
14 7 1 1 5 14 15 16 17 13
15 5 1 1 8 14 15 16 17 18 19 20 21
$ENDELM
